seed_random_opt/waveforms/top.vcd
$date
	Wed Feb  4 22:33:15 2026
$end
$version
	Icarus Verilog
$end
$timescale
	1ps
$end
$scope module testbench $end
$var wire 8 ! card_to_send_o [7:0] $end
$var reg 1 " clk_i $end
$var reg 1 # request_card_i $end
$var reg 1 $ rst_i $end
$var reg 1 % start $end
$scope module uut $end
$var wire 1 " clk_i $end
$var wire 1 # request_card_i $end
$var wire 1 $ rst_i $end
$var wire 1 % start $end
$var wire 1 & state_w $end
$var wire 2 ' seed_w [1:0] $end
$var wire 8 ( card_to_send_o [7:0] $end
$scope module seed_s $end
$var wire 1 " clk_i $end
$var wire 1 $ rst_i $end
$var wire 2 ) seed_sel_o [1:0] $end
$var wire 1 % start $end
$var parameter 2 * seed_1 $end
$var parameter 2 + seed_2 $end
$var parameter 2 , seed_3 $end
$var parameter 2 - seed_4 $end
$var reg 2 . seed_s [1:0] $end
$upscope $end
$scope module srcp $end
$var wire 1 " clk_cp_i $end
$var wire 1 # req_card_state_cp $end
$var wire 1 $ rst_cp_i $end
$var wire 1 & state_o $end
$var parameter 32 / IDLE $end
$var parameter 32 0 SEND $end
$var reg 1 1 next_state $end
$upscope $end
$scope module srdp $end
$var wire 8 2 card_to_send_dp_o [7:0] $end
$var wire 1 " clk_dp_i $end
$var wire 1 & req_card_state_dp_c_i $end
$var wire 1 $ rst_dp_i $end
$var wire 2 3 seed_sel_i [1:0] $end
$var wire 8 4 card_to_send [7:0] $end
$var parameter 8 5 B1_01 $end
$var parameter 8 6 B1_02 $end
$var parameter 8 7 B1_03 $end
$var parameter 8 8 B1_04 $end
$var parameter 8 9 B1_05 $end
$var parameter 8 : B1_06 $end
$var parameter 8 ; B1_07 $end
$var parameter 8 < B1_08 $end
$var parameter 8 = B1_09 $end
$var parameter 8 > B1_10 $end
$var parameter 8 ? B1_11 $end
$var parameter 8 @ B1_12 $end
$var parameter 8 A B1_13 $end
$var parameter 8 B B1_14 $end
$var parameter 8 C B1_15 $end
$var parameter 8 D B1_16 $end
$var parameter 8 E B1_17 $end
$var parameter 8 F B1_18 $end
$var parameter 8 G B1_19 $end
$var parameter 8 H B1_20 $end
$var parameter 8 I B1_21 $end
$var parameter 8 J B1_22 $end
$var parameter 8 K B1_23 $end
$var parameter 8 L B1_24 $end
$var parameter 8 M B1_25 $end
$var parameter 8 N B1_26 $end
$var parameter 8 O B1_27 $end
$var parameter 8 P B1_28 $end
$var parameter 8 Q B1_29 $end
$var parameter 8 R B1_30 $end
$var parameter 8 S B1_31 $end
$var parameter 8 T B1_32 $end
$var parameter 8 U B1_33 $end
$var parameter 8 V B1_34 $end
$var parameter 8 W B1_35 $end
$var parameter 8 X B1_36 $end
$var parameter 8 Y B1_37 $end
$var parameter 8 Z B1_38 $end
$var parameter 8 [ B1_39 $end
$var parameter 8 \ B1_40 $end
$var parameter 8 ] B1_41 $end
$var parameter 8 ^ B1_42 $end
$var parameter 8 _ B1_43 $end
$var parameter 8 ` B1_44 $end
$var parameter 8 a B1_45 $end
$var parameter 8 b B1_46 $end
$var parameter 8 c B1_47 $end
$var parameter 8 d B1_48 $end
$var parameter 8 e B1_49 $end
$var parameter 8 f B1_50 $end
$var parameter 8 g B1_51 $end
$var parameter 8 h B1_52 $end
$var parameter 8 i B2_01 $end
$var parameter 8 j B2_02 $end
$var parameter 8 k B2_03 $end
$var parameter 8 l B2_04 $end
$var parameter 8 m B2_05 $end
$var parameter 8 n B2_06 $end
$var parameter 8 o B2_07 $end
$var parameter 8 p B2_08 $end
$var parameter 8 q B2_09 $end
$var parameter 8 r B2_10 $end
$var parameter 8 s B2_11 $end
$var parameter 8 t B2_12 $end
$var parameter 8 u B2_13 $end
$var parameter 8 v B2_14 $end
$var parameter 8 w B2_15 $end
$var parameter 8 x B2_16 $end
$var parameter 8 y B2_17 $end
$var parameter 8 z B2_18 $end
$var parameter 8 { B2_19 $end
$var parameter 8 | B2_20 $end
$var parameter 8 } B2_21 $end
$var parameter 8 ~ B2_22 $end
$var parameter 8 !" B2_23 $end
$var parameter 8 "" B2_24 $end
$var parameter 8 #" B2_25 $end
$var parameter 8 $" B2_26 $end
$var parameter 8 %" B2_27 $end
$var parameter 8 &" B2_28 $end
$var parameter 8 '" B2_29 $end
$var parameter 8 (" B2_30 $end
$var parameter 8 )" B2_31 $end
$var parameter 8 *" B2_32 $end
$var parameter 8 +" B2_33 $end
$var parameter 8 ," B2_34 $end
$var parameter 8 -" B2_35 $end
$var parameter 8 ." B2_36 $end
$var parameter 8 /" B2_37 $end
$var parameter 8 0" B2_38 $end
$var parameter 8 1" B2_39 $end
$var parameter 8 2" B2_40 $end
$var parameter 8 3" B2_41 $end
$var parameter 8 4" B2_42 $end
$var parameter 8 5" B2_43 $end
$var parameter 8 6" B2_44 $end
$var parameter 8 7" B2_45 $end
$var parameter 8 8" B2_46 $end
$var parameter 8 9" B2_47 $end
$var parameter 8 :" B2_48 $end
$var parameter 8 ;" B2_49 $end
$var parameter 8 <" B2_50 $end
$var parameter 8 =" B2_51 $end
$var parameter 8 >" B2_52 $end
$var parameter 8 ?" B3_01 $end
$var parameter 8 @" B3_02 $end
$var parameter 8 A" B3_03 $end
$var parameter 8 B" B3_04 $end
$var parameter 8 C" B3_05 $end
$var parameter 8 D" B3_06 $end
$var parameter 8 E" B3_07 $end
$var parameter 8 F" B3_08 $end
$var parameter 8 G" B3_09 $end
$var parameter 8 H" B3_10 $end
$var parameter 8 I" B3_11 $end
$var parameter 8 J" B3_12 $end
$var parameter 8 K" B3_13 $end
$var parameter 8 L" B3_14 $end
$var parameter 8 M" B3_15 $end
$var parameter 8 N" B3_16 $end
$var parameter 8 O" B3_17 $end
$var parameter 8 P" B3_18 $end
$var parameter 8 Q" B3_19 $end
$var parameter 8 R" B3_20 $end
$var parameter 8 S" B3_21 $end
$var parameter 8 T" B3_22 $end
$var parameter 8 U" B3_23 $end
$var parameter 8 V" B3_24 $end
$var parameter 8 W" B3_25 $end
$var parameter 8 X" B3_26 $end
$var parameter 8 Y" B3_27 $end
$var parameter 8 Z" B3_28 $end
$var parameter 8 [" B3_29 $end
$var parameter 8 \" B3_30 $end
$var parameter 8 ]" B3_31 $end
$var parameter 8 ^" B3_32 $end
$var parameter 8 _" B3_33 $end
$var parameter 8 `" B3_34 $end
$var parameter 8 a" B3_35 $end
$var parameter 8 b" B3_36 $end
$var parameter 8 c" B3_37 $end
$var parameter 8 d" B3_38 $end
$var parameter 8 e" B3_39 $end
$var parameter 8 f" B3_40 $end
$var parameter 8 g" B3_41 $end
$var parameter 8 h" B3_42 $end
$var parameter 8 i" B3_43 $end
$var parameter 8 j" B3_44 $end
$var parameter 8 k" B3_45 $end
$var parameter 8 l" B3_46 $end
$var parameter 8 m" B3_47 $end
$var parameter 8 n" B3_48 $end
$var parameter 8 o" B3_49 $end
$var parameter 8 p" B3_50 $end
$var parameter 8 q" B3_51 $end
$var parameter 8 r" B3_52 $end
$var parameter 8 s" B4_01 $end
$var parameter 8 t" B4_02 $end
$var parameter 8 u" B4_03 $end
$var parameter 8 v" B4_04 $end
$var parameter 8 w" B4_05 $end
$var parameter 8 x" B4_06 $end
$var parameter 8 y" B4_07 $end
$var parameter 8 z" B4_08 $end
$var parameter 8 {" B4_09 $end
$var parameter 8 |" B4_10 $end
$var parameter 8 }" B4_11 $end
$var parameter 8 ~" B4_12 $end
$var parameter 8 !# B4_13 $end
$var parameter 8 "# B4_14 $end
$var parameter 8 ## B4_15 $end
$var parameter 8 $# B4_16 $end
$var parameter 8 %# B4_17 $end
$var parameter 8 &# B4_18 $end
$var parameter 8 '# B4_19 $end
$var parameter 8 (# B4_20 $end
$var parameter 8 )# B4_21 $end
$var parameter 8 *# B4_22 $end
$var parameter 8 +# B4_23 $end
$var parameter 8 ,# B4_24 $end
$var parameter 8 -# B4_25 $end
$var parameter 8 .# B4_26 $end
$var parameter 8 /# B4_27 $end
$var parameter 8 0# B4_28 $end
$var parameter 8 1# B4_29 $end
$var parameter 8 2# B4_30 $end
$var parameter 8 3# B4_31 $end
$var parameter 8 4# B4_32 $end
$var parameter 8 5# B4_33 $end
$var parameter 8 6# B4_34 $end
$var parameter 8 7# B4_35 $end
$var parameter 8 8# B4_36 $end
$var parameter 8 9# B4_37 $end
$var parameter 8 :# B4_38 $end
$var parameter 8 ;# B4_39 $end
$var parameter 8 <# B4_40 $end
$var parameter 8 =# B4_41 $end
$var parameter 8 ># B4_42 $end
$var parameter 8 ?# B4_43 $end
$var parameter 8 @# B4_44 $end
$var parameter 8 A# B4_45 $end
$var parameter 8 B# B4_46 $end
$var parameter 8 C# B4_47 $end
$var parameter 8 D# B4_48 $end
$var parameter 8 E# B4_49 $end
$var parameter 8 F# B4_50 $end
$var parameter 8 G# B4_51 $end
$var parameter 8 H# B4_52 $end
$var parameter 32 I# IDLE $end
$var parameter 32 J# SEND $end
$var parameter 8 K# position_b1_card_01 $end
$var parameter 8 L# position_b1_card_02 $end
$var parameter 8 M# position_b1_card_03 $end
$var parameter 8 N# position_b1_card_04 $end
$var parameter 8 O# position_b1_card_05 $end
$var parameter 8 P# position_b1_card_06 $end
$var parameter 8 Q# position_b1_card_07 $end
$var parameter 8 R# position_b1_card_08 $end
$var parameter 8 S# position_b1_card_09 $end
$var parameter 8 T# position_b1_card_10 $end
$var parameter 8 U# position_b1_card_11 $end
$var parameter 8 V# position_b1_card_12 $end
$var parameter 8 W# position_b1_card_13 $end
$var parameter 8 X# position_b1_card_14 $end
$var parameter 8 Y# position_b1_card_15 $end
$var parameter 8 Z# position_b1_card_16 $end
$var parameter 8 [# position_b1_card_17 $end
$var parameter 8 \# position_b1_card_18 $end
$var parameter 8 ]# position_b1_card_19 $end
$var parameter 8 ^# position_b1_card_20 $end
$var parameter 8 _# position_b1_card_21 $end
$var parameter 8 `# position_b1_card_22 $end
$var parameter 8 a# position_b1_card_23 $end
$var parameter 8 b# position_b1_card_24 $end
$var parameter 8 c# position_b1_card_25 $end
$var parameter 8 d# position_b1_card_26 $end
$var parameter 8 e# position_b1_card_27 $end
$var parameter 8 f# position_b1_card_28 $end
$var parameter 8 g# position_b1_card_29 $end
$var parameter 8 h# position_b1_card_30 $end
$var parameter 8 i# position_b1_card_31 $end
$var parameter 8 j# position_b1_card_32 $end
$var parameter 8 k# position_b1_card_33 $end
$var parameter 8 l# position_b1_card_34 $end
$var parameter 8 m# position_b1_card_35 $end
$var parameter 8 n# position_b1_card_36 $end
$var parameter 8 o# position_b1_card_37 $end
$var parameter 8 p# position_b1_card_38 $end
$var parameter 8 q# position_b1_card_39 $end
$var parameter 8 r# position_b1_card_40 $end
$var parameter 8 s# position_b1_card_41 $end
$var parameter 8 t# position_b1_card_42 $end
$var parameter 8 u# position_b1_card_43 $end
$var parameter 8 v# position_b1_card_44 $end
$var parameter 8 w# position_b1_card_45 $end
$var parameter 8 x# position_b1_card_46 $end
$var parameter 8 y# position_b1_card_47 $end
$var parameter 8 z# position_b1_card_48 $end
$var parameter 8 {# position_b1_card_49 $end
$var parameter 8 |# position_b1_card_50 $end
$var parameter 8 }# position_b1_card_51 $end
$var parameter 8 ~# position_b1_card_52 $end
$var parameter 8 !$ position_b2_card_01 $end
$var parameter 8 "$ position_b2_card_02 $end
$var parameter 8 #$ position_b2_card_03 $end
$var parameter 8 $$ position_b2_card_04 $end
$var parameter 8 %$ position_b2_card_05 $end
$var parameter 8 &$ position_b2_card_06 $end
$var parameter 8 '$ position_b2_card_07 $end
$var parameter 8 ($ position_b2_card_08 $end
$var parameter 8 )$ position_b2_card_09 $end
$var parameter 8 *$ position_b2_card_10 $end
$var parameter 8 +$ position_b2_card_11 $end
$var parameter 8 ,$ position_b2_card_12 $end
$var parameter 8 -$ position_b2_card_13 $end
$var parameter 8 .$ position_b2_card_14 $end
$var parameter 8 /$ position_b2_card_15 $end
$var parameter 8 0$ position_b2_card_16 $end
$var parameter 8 1$ position_b2_card_17 $end
$var parameter 8 2$ position_b2_card_18 $end
$var parameter 8 3$ position_b2_card_19 $end
$var parameter 8 4$ position_b2_card_20 $end
$var parameter 8 5$ position_b2_card_21 $end
$var parameter 8 6$ position_b2_card_22 $end
$var parameter 8 7$ position_b2_card_23 $end
$var parameter 8 8$ position_b2_card_24 $end
$var parameter 8 9$ position_b2_card_25 $end
$var parameter 8 :$ position_b2_card_26 $end
$var parameter 8 ;$ position_b2_card_27 $end
$var parameter 8 <$ position_b2_card_28 $end
$var parameter 8 =$ position_b2_card_29 $end
$var parameter 8 >$ position_b2_card_30 $end
$var parameter 8 ?$ position_b2_card_31 $end
$var parameter 8 @$ position_b2_card_32 $end
$var parameter 8 A$ position_b2_card_33 $end
$var parameter 8 B$ position_b2_card_34 $end
$var parameter 8 C$ position_b2_card_35 $end
$var parameter 8 D$ position_b2_card_36 $end
$var parameter 8 E$ position_b2_card_37 $end
$var parameter 8 F$ position_b2_card_38 $end
$var parameter 8 G$ position_b2_card_39 $end
$var parameter 8 H$ position_b2_card_40 $end
$var parameter 8 I$ position_b2_card_41 $end
$var parameter 8 J$ position_b2_card_42 $end
$var parameter 8 K$ position_b2_card_43 $end
$var parameter 8 L$ position_b2_card_44 $end
$var parameter 8 M$ position_b2_card_45 $end
$var parameter 8 N$ position_b2_card_46 $end
$var parameter 8 O$ position_b2_card_47 $end
$var parameter 8 P$ position_b2_card_48 $end
$var parameter 8 Q$ position_b2_card_49 $end
$var parameter 8 R$ position_b2_card_50 $end
$var parameter 8 S$ position_b2_card_51 $end
$var parameter 8 T$ position_b2_card_52 $end
$var parameter 8 U$ position_b3_card_01 $end
$var parameter 8 V$ position_b3_card_02 $end
$var parameter 8 W$ position_b3_card_03 $end
$var parameter 8 X$ position_b3_card_04 $end
$var parameter 8 Y$ position_b3_card_05 $end
$var parameter 8 Z$ position_b3_card_06 $end
$var parameter 8 [$ position_b3_card_07 $end
$var parameter 8 \$ position_b3_card_08 $end
$var parameter 8 ]$ position_b3_card_09 $end
$var parameter 8 ^$ position_b3_card_10 $end
$var parameter 8 _$ position_b3_card_11 $end
$var parameter 8 `$ position_b3_card_12 $end
$var parameter 8 a$ position_b3_card_13 $end
$var parameter 8 b$ position_b3_card_14 $end
$var parameter 8 c$ position_b3_card_15 $end
$var parameter 8 d$ position_b3_card_16 $end
$var parameter 8 e$ position_b3_card_17 $end
$var parameter 8 f$ position_b3_card_18 $end
$var parameter 8 g$ position_b3_card_19 $end
$var parameter 8 h$ position_b3_card_20 $end
$var parameter 8 i$ position_b3_card_21 $end
$var parameter 8 j$ position_b3_card_22 $end
$var parameter 8 k$ position_b3_card_23 $end
$var parameter 8 l$ position_b3_card_24 $end
$var parameter 8 m$ position_b3_card_25 $end
$var parameter 8 n$ position_b3_card_26 $end
$var parameter 8 o$ position_b3_card_27 $end
$var parameter 8 p$ position_b3_card_28 $end
$var parameter 8 q$ position_b3_card_29 $end
$var parameter 8 r$ position_b3_card_30 $end
$var parameter 8 s$ position_b3_card_31 $end
$var parameter 8 t$ position_b3_card_32 $end
$var parameter 8 u$ position_b3_card_33 $end
$var parameter 8 v$ position_b3_card_34 $end
$var parameter 8 w$ position_b3_card_35 $end
$var parameter 8 x$ position_b3_card_36 $end
$var parameter 8 y$ position_b3_card_37 $end
$var parameter 8 z$ position_b3_card_38 $end
$var parameter 8 {$ position_b3_card_39 $end
$var parameter 8 |$ position_b3_card_40 $end
$var parameter 8 }$ position_b3_card_41 $end
$var parameter 8 ~$ position_b3_card_42 $end
$var parameter 8 !% position_b3_card_43 $end
$var parameter 8 "% position_b3_card_44 $end
$var parameter 8 #% position_b3_card_45 $end
$var parameter 8 $% position_b3_card_46 $end
$var parameter 8 %% position_b3_card_47 $end
$var parameter 8 &% position_b3_card_48 $end
$var parameter 8 '% position_b3_card_49 $end
$var parameter 8 (% position_b3_card_50 $end
$var parameter 8 )% position_b3_card_51 $end
$var parameter 8 *% position_b3_card_52 $end
$var parameter 8 +% position_b4_card_01 $end
$var parameter 8 ,% position_b4_card_02 $end
$var parameter 8 -% position_b4_card_03 $end
$var parameter 8 .% position_b4_card_04 $end
$var parameter 8 /% position_b4_card_05 $end
$var parameter 8 0% position_b4_card_06 $end
$var parameter 8 1% position_b4_card_07 $end
$var parameter 8 2% position_b4_card_08 $end
$var parameter 8 3% position_b4_card_09 $end
$var parameter 8 4% position_b4_card_10 $end
$var parameter 8 5% position_b4_card_11 $end
$var parameter 8 6% position_b4_card_12 $end
$var parameter 8 7% position_b4_card_13 $end
$var parameter 8 8% position_b4_card_14 $end
$var parameter 8 9% position_b4_card_15 $end
$var parameter 8 :% position_b4_card_16 $end
$var parameter 8 ;% position_b4_card_17 $end
$var parameter 8 <% position_b4_card_18 $end
$var parameter 8 =% position_b4_card_19 $end
$var parameter 8 >% position_b4_card_20 $end
$var parameter 8 ?% position_b4_card_21 $end
$var parameter 8 @% position_b4_card_22 $end
$var parameter 8 A% position_b4_card_23 $end
$var parameter 8 B% position_b4_card_24 $end
$var parameter 8 C% position_b4_card_25 $end
$var parameter 8 D% position_b4_card_26 $end
$var parameter 8 E% position_b4_card_27 $end
$var parameter 8 F% position_b4_card_28 $end
$var parameter 8 G% position_b4_card_29 $end
$var parameter 8 H% position_b4_card_30 $end
$var parameter 8 I% position_b4_card_31 $end
$var parameter 8 J% position_b4_card_32 $end
$var parameter 8 K% position_b4_card_33 $end
$var parameter 8 L% position_b4_card_34 $end
$var parameter 8 M% position_b4_card_35 $end
$var parameter 8 N% position_b4_card_36 $end
$var parameter 8 O% position_b4_card_37 $end
$var parameter 8 P% position_b4_card_38 $end
$var parameter 8 Q% position_b4_card_39 $end
$var parameter 8 R% position_b4_card_40 $end
$var parameter 8 S% position_b4_card_41 $end
$var parameter 8 T% position_b4_card_42 $end
$var parameter 8 U% position_b4_card_43 $end
$var parameter 8 V% position_b4_card_44 $end
$var parameter 8 W% position_b4_card_45 $end
$var parameter 8 X% position_b4_card_46 $end
$var parameter 8 Y% position_b4_card_47 $end
$var parameter 8 Z% position_b4_card_48 $end
$var parameter 8 [% position_b4_card_49 $end
$var parameter 8 \% position_b4_card_50 $end
$var parameter 8 ]% position_b4_card_51 $end
$var parameter 8 ^% position_b4_card_52 $end
$var parameter 2 _% seed1_now $end
$var parameter 2 `% seed2_now $end
$var parameter 2 a% seed3_now $end
$var parameter 2 b% seed4_now $end
$var reg 8 c% next_card [7:0] $end
$scope function card_selector $end
$var reg 8 d% card [7:0] $end
$upscope $end
$scope module inst $end
$var wire 1 " clk_dp_c_i $end
$var wire 1 & req_card_state_dp_c_i $end
$var wire 1 $ rst_dp_c_i $end
$var parameter 32 e% IDLE $end
$var parameter 32 f% SEND $end
$var reg 8 g% card_counter [7:0] $end
$var reg 8 h% next_card_o [7:0] $end
$var reg 1 i% state $end
$upscope $end
$upscope $end
$upscope $end
$scope begin Clock_generator $end
$upscope $end
$scope begin Wavedump $end
$upscope $end
$upscope $end
$enddefinitions $end
$comment Show the parameter values. $end
$dumpall
b1 f%
b0 e%
b11 b%
b10 a%
b1 `%
b0 _%
b100 ^%
b100100 ]%
b101010 \%
b111100 [%
b111101 Z%
b10111 Y%
b110101 X%
b1011 W%
b100101 V%
b101100 U%
b111 T%
b101 S%
b110010 R%
b10100 Q%
b11000 P%
b11010 O%
b10110 N%
b1001 M%
b1100 L%
b111011 K%
b11011 J%
b10011 I%
b11101 H%
b11001 G%
b11 F%
b10010 E%
b101000 D%
b1010 C%
b100010 B%
b110111 A%
b111000 @%
b11100 ?%
b101011 >%
b100110 =%
b10001 <%
b110011 ;%
b1 :%
b110110 9%
b10 8%
b101101 7%
b110100 6%
b100011 5%
b1000 4%
b111001 3%
b100001 2%
b10101 1%
b1101 0%
b111010 /%
b110 .%
b100111 -%
b110001 ,%
b101001 +%
b100110 *%
b110010 )%
b110 (%
b11101 '%
b111100 &%
b101000 %%
b101101 $%
b1101 #%
b111010 "%
b1 !%
b10101 ~$
b111011 }$
b1001 |$
b100111 {$
b100 z$
b100100 y$
b101 x$
b111 w$
b10111 v$
b111001 u$
b11 t$
b110101 s$
b100010 r$
b11001 q$
b1000 p$
b100101 o$
b110110 n$
b10110 m$
b11100 l$
b101100 k$
b10100 j$
b10001 i$
b100001 h$
b111101 g$
b11000 f$
b11011 e$
b110111 d$
b111000 c$
b10010 b$
b1010 a$
b101011 `$
b101010 _$
b110100 ^$
b10 ]$
b10011 \$
b101001 [$
b100011 Z$
b11010 Y$
b1011 X$
b110001 W$
b1100 V$
b110011 U$
b10010 T$
b1101 S$
b1 R$
b101001 Q$
b11000 P$
b11001 O$
b100011 N$
b11011 M$
b110010 L$
b101101 K$
b110111 J$
b111001 I$
b111100 H$
b110101 G$
b110100 F$
b101010 E$
b110001 D$
b100110 C$
b100100 B$
b10101 A$
b100010 @$
b111000 ?$
b10 >$
b101011 =$
b10110 <$
b11010 ;$
b10111 :$
b110 9$
b10011 8$
b110011 7$
b11 6$
b1001 5$
b101100 4$
b11100 3$
b10100 2$
b1100 1$
b100111 0$
b110110 /$
b111101 .$
b111 -$
b1011 ,$
b1010 +$
b100 *$
b10001 )$
b100101 ($
b111011 '$
b100001 &$
b101000 %$
b11101 $$
b1000 #$
b101 "$
b111010 !$
b110 ~#
b10010 }#
b10110 |#
b10100 {#
b11100 z#
b110010 y#
b111011 x#
b10001 w#
b111001 v#
b110100 u#
b11001 t#
b101 s#
b100100 r#
b111101 q#
b11000 p#
b1001 o#
b100010 n#
b101011 m#
b10101 l#
b100001 k#
b100011 j#
b100 i#
b110110 h#
b1010 g#
b11010 f#
b101100 e#
b100111 d#
b1011 c#
b110001 b#
b11011 a#
b1101 `#
b10 _#
b110111 ^#
b101101 ]#
b11101 \#
b111000 [#
b110011 Z#
b10111 Y#
b111 X#
b111010 W#
b1 V#
b100110 U#
b11 T#
b100101 S#
b110101 R#
b1100 Q#
b101010 P#
b101000 O#
b1000 N#
b101001 M#
b10011 L#
b111100 K#
b1 J#
b0 I#
b111101 H#
b111100 G#
b111011 F#
b111010 E#
b111001 D#
b111000 C#
b110111 B#
b110110 A#
b110101 @#
b110100 ?#
b110011 >#
b110010 =#
b110001 <#
b101101 ;#
b101100 :#
b101011 9#
b101010 8#
b101001 7#
b101000 6#
b100111 5#
b100110 4#
b100101 3#
b100100 2#
b100011 1#
b100010 0#
b100001 /#
b11101 .#
b11100 -#
b11011 ,#
b11010 +#
b11001 *#
b11000 )#
b10111 (#
b10110 '#
b10101 &#
b10100 %#
b10011 $#
b10010 ##
b10001 "#
b1101 !#
b1100 ~"
b1011 }"
b1010 |"
b1001 {"
b1000 z"
b111 y"
b110 x"
b101 w"
b100 v"
b11 u"
b10 t"
b1 s"
b111101 r"
b111100 q"
b111011 p"
b111010 o"
b111001 n"
b111000 m"
b110111 l"
b110110 k"
b110101 j"
b110100 i"
b110011 h"
b110010 g"
b110001 f"
b101101 e"
b101100 d"
b101011 c"
b101010 b"
b101001 a"
b101000 `"
b100111 _"
b100110 ^"
b100101 ]"
b100100 \"
b100011 ["
b100010 Z"
b100001 Y"
b11101 X"
b11100 W"
b11011 V"
b11010 U"
b11001 T"
b11000 S"
b10111 R"
b10110 Q"
b10101 P"
b10100 O"
b10011 N"
b10010 M"
b10001 L"
b1101 K"
b1100 J"
b1011 I"
b1010 H"
b1001 G"
b1000 F"
b111 E"
b110 D"
b101 C"
b100 B"
b11 A"
b10 @"
b1 ?"
b111101 >"
b111100 ="
b111011 <"
b111010 ;"
b111001 :"
b111000 9"
b110111 8"
b110110 7"
b110101 6"
b110100 5"
b110011 4"
b110010 3"
b110001 2"
b101101 1"
b101100 0"
b101011 /"
b101010 ."
b101001 -"
b101000 ,"
b100111 +"
b100110 *"
b100101 )"
b100100 ("
b100011 '"
b100010 &"
b100001 %"
b11101 $"
b11100 #"
b11011 ""
b11010 !"
b11001 ~
b11000 }
b10111 |
b10110 {
b10101 z
b10100 y
b10011 x
b10010 w
b10001 v
b1101 u
b1100 t
b1011 s
b1010 r
b1001 q
b1000 p
b111 o
b110 n
b101 m
b100 l
b11 k
b10 j
b1 i
b111101 h
b111100 g
b111011 f
b111010 e
b111001 d
b111000 c
b110111 b
b110110 a
b110101 `
b110100 _
b110011 ^
b110010 ]
b110001 \
b101101 [
b101100 Z
b101011 Y
b101010 X
b101001 W
b101000 V
b100111 U
b100110 T
b100101 S
b100100 R
b100011 Q
b100010 P
b100001 O
b11101 N
b11100 M
b11011 L
b11010 K
b11001 J
b11000 I
b10111 H
b10110 G
b10101 F
b10100 E
b10011 D
b10010 C
b10001 B
b1101 A
b1100 @
b1011 ?
b1010 >
b1001 =
b1000 <
b111 ;
b110 :
b101 9
b100 8
b11 7
b10 6
b1 5
b1 0
b0 /
b11 -
b10 ,
b1 +
b0 *
$end
#0
$dumpvars
0i%
b0 h%
b0 g%
bx d%
b0 c%
b0 4
b0 3
b0 2
01
b0 .
b0 )
b0 (
b0 '
0&
x%
0$
x#
0"
b0 !
$end
#5000
1"
#10000
0"
1$
#15000
b1 '
b1 )
b1 3
b1 .
1"
#20000
0"
0#
1%
#25000
b10 '
b10 )
b10 3
b10 .
1"
#30000
0"
#35000
b11 '
b11 )
b11 3
b11 .
1"
#40000
0"
#45000
b0 '
b0 )
b0 3
b0 .
1"
#50000
0"
#55000
b1 '
b1 )
b1 3
b1 .
1"
#60000
0"
#65000
b10 '
b10 )
b10 3
b10 .
1"
#70000
0"
1#
#75000
1i%
1&
11
b11 '
b11 )
b11 3
b11 .
1"
#80000
0"
#85000
b1 4
b1 h%
b0 '
b0 )
b0 3
b0 .
b1 g%
b0 d%
1"
#90000
0"
#95000
b10 4
b10 h%
b10 g%
b111100 !
b111100 (
b111100 2
b111100 c%
b1 '
b1 )
b1 3
b1 .
b1 d%
1"
#100000
0"
#105000
b11 4
b11 h%
b10 '
b10 )
b10 3
b10 .
b101 !
b101 (
b101 2
b101 c%
b11 g%
b10 d%
1"
#110000
0"
#115000
b100 4
b100 h%
b100 g%
b110001 !
b110001 (
b110001 2
b110001 c%
b11 '
b11 )
b11 3
b11 .
b11 d%
1"
#120000
0"
#125000
b101 4
b101 h%
b0 '
b0 )
b0 3
b0 .
b110 !
b110 (
b110 2
b110 c%
b101 g%
b100 d%
1"
#130000
0"
#135000
b110 4
b110 h%
b110 g%
b101000 !
b101000 (
b101000 2
b101000 c%
b1 '
b1 )
b1 3
b1 .
b101 d%
1"
#140000
0"
#145000
b111 4
b111 h%
b10 '
b10 )
b10 3
b10 .
b100001 !
b100001 (
b100001 2
b100001 c%
b111 g%
b110 d%
1"
#150000
0"
#155000
b1000 4
b1000 h%
b1000 g%
b101001 !
b101001 (
b101001 2
b101001 c%
b11 '
b11 )
b11 3
b11 .
b111 d%
1"
#160000
0"
#165000
b1001 4
b1001 h%
b0 '
b0 )
b0 3
b0 .
b100001 !
b100001 (
b100001 2
b100001 c%
b1001 g%
b1000 d%
1"
#170000
0"
0#
#175000
b1010 4
b1010 h%
0i%
0&
01
b1010 g%
b100101 !
b100101 (
b100101 2
b100101 c%
b1 '
b1 )
b1 3
b1 .
b1001 d%
1"
#180000
0"
#185000
b10 '
b10 )
b10 3
b10 .
1"
#190000
0"
#195000
b11 '
b11 )
b11 3
b11 .
1"
#200000
0"
#205000
b0 '
b0 )
b0 3
b0 .
1"
#210000
0"
#215000
b1 '
b1 )
b1 3
b1 .
1"
#220000
0"
#225000
b10 '
b10 )
b10 3
b10 .
1"
#230000
0"
#235000
b11 '
b11 )
b11 3
b11 .
1"
#240000
0"
#245000
b0 '
b0 )
b0 3
b0 .
1"
#250000
0"
#255000
b1 '
b1 )
b1 3
b1 .
1"
#260000
0"
#265000
b10 '
b10 )
b10 3
b10 .
1"
#270000
0"
#275000
b11 '
b11 )
b11 3
b11 .
1"
#280000
0"
#285000
b0 '
b0 )
b0 3
b0 .
1"
#290000
0"
#295000
b1 '
b1 )
b1 3
b1 .
1"
#300000
0"
#305000
b10 '
b10 )
b10 3
b10 .
1"
#310000
0"
#315000
b11 '
b11 )
b11 3
b11 .
1"
#320000
0"
1#
#325000
1i%
b0 '
b0 )
b0 3
b0 .
1&
11
1"
#330000
0"
#335000
b1011 4
b1011 h%
b1011 g%
b11 !
b11 (
b11 2
b11 c%
b1 '
b1 )
b1 3
b1 .
b1010 d%
1"
#340000
0"
#345000
b1100 4
b1100 h%
b10 '
b10 )
b10 3
b10 .
b1010 !
b1010 (
b1010 2
b1010 c%
b1100 g%
b1011 d%
1"
#350000
0"
#355000
b1101 4
b1101 h%
b1101 g%
b101011 !
b101011 (
b101011 2
b101011 c%
b11 '
b11 )
b11 3
b11 .
b1100 d%
1"
#360000
0"
#365000
b1110 4
b1110 h%
b0 '
b0 )
b0 3
b0 .
b101101 !
b101101 (
b101101 2
b101101 c%
b1110 g%
b1101 d%
1"
#370000
0"
#375000
b1111 4
b1111 h%
b1111 g%
b111 !
b111 (
b111 2
b111 c%
b1 '
b1 )
b1 3
b1 .
b1110 d%
1"
#380000
0"
#385000
b10000 4
b10000 h%
b10 '
b10 )
b10 3
b10 .
b110110 !
b110110 (
b110110 2
b110110 c%
b10000 g%
b1111 d%
1"
#390000
0"
#395000
b10001 4
b10001 h%
b10001 g%
b110111 !
b110111 (
b110111 2
b110111 c%
b11 '
b11 )
b11 3
b11 .
b10000 d%
1"
#400000
0"
#405000
b10010 4
b10010 h%
b0 '
b0 )
b0 3
b0 .
b110011 !
b110011 (
b110011 2
b110011 c%
b10010 g%
b10001 d%
1"
#410000
0"
#415000
b10011 4
b10011 h%
b10011 g%
b11101 !
b11101 (
b11101 2
b11101 c%
b1 '
b1 )
b1 3
b1 .
b10010 d%
1"
#420000
0"
