seed_random/seed_random_3/waveforms/data_path.vcd
$date
	Sat Jan 31 20:21:31 2026
$end
$version
	Icarus Verilog
$end
$timescale
	1ps
$end
$scope module testbench_data_path $end
$var wire 8 ! card_to_send_dp_o [7:0] $end
$var reg 1 " clk_dp_i $end
$var reg 1 # req_card_state_dp_i $end
$var reg 1 $ rst_dp_i $end
$scope module uut $end
$var wire 8 % card_to_send_dp_o [7:0] $end
$var wire 1 " clk_dp_i $end
$var wire 1 # req_card_state_dp_i $end
$var wire 1 $ rst_dp_i $end
$var wire 8 & card_to_send [7:0] $end
$var parameter 8 ' B3_01 $end
$var parameter 8 ( B3_02 $end
$var parameter 8 ) B3_03 $end
$var parameter 8 * B3_04 $end
$var parameter 8 + B3_05 $end
$var parameter 8 , B3_06 $end
$var parameter 8 - B3_07 $end
$var parameter 8 . B3_08 $end
$var parameter 8 / B3_09 $end
$var parameter 8 0 B3_10 $end
$var parameter 8 1 B3_11 $end
$var parameter 8 2 B3_12 $end
$var parameter 8 3 B3_13 $end
$var parameter 8 4 B3_14 $end
$var parameter 8 5 B3_15 $end
$var parameter 8 6 B3_16 $end
$var parameter 8 7 B3_17 $end
$var parameter 8 8 B3_18 $end
$var parameter 8 9 B3_19 $end
$var parameter 8 : B3_20 $end
$var parameter 8 ; B3_21 $end
$var parameter 8 < B3_22 $end
$var parameter 8 = B3_23 $end
$var parameter 8 > B3_24 $end
$var parameter 8 ? B3_25 $end
$var parameter 8 @ B3_26 $end
$var parameter 8 A B3_27 $end
$var parameter 8 B B3_28 $end
$var parameter 8 C B3_29 $end
$var parameter 8 D B3_30 $end
$var parameter 8 E B3_31 $end
$var parameter 8 F B3_32 $end
$var parameter 8 G B3_33 $end
$var parameter 8 H B3_34 $end
$var parameter 8 I B3_35 $end
$var parameter 8 J B3_36 $end
$var parameter 8 K B3_37 $end
$var parameter 8 L B3_38 $end
$var parameter 8 M B3_39 $end
$var parameter 8 N B3_40 $end
$var parameter 8 O B3_41 $end
$var parameter 8 P B3_42 $end
$var parameter 8 Q B3_43 $end
$var parameter 8 R B3_44 $end
$var parameter 8 S B3_45 $end
$var parameter 8 T B3_46 $end
$var parameter 8 U B3_47 $end
$var parameter 8 V B3_48 $end
$var parameter 8 W B3_49 $end
$var parameter 8 X B3_50 $end
$var parameter 8 Y B3_51 $end
$var parameter 8 Z B3_52 $end
$var parameter 32 [ IDLE $end
$var parameter 32 \ SEND $end
$var parameter 8 ] position_01 $end
$var parameter 8 ^ position_02 $end
$var parameter 8 _ position_03 $end
$var parameter 8 ` position_04 $end
$var parameter 8 a position_05 $end
$var parameter 8 b position_06 $end
$var parameter 8 c position_07 $end
$var parameter 8 d position_08 $end
$var parameter 8 e position_09 $end
$var parameter 8 f position_10 $end
$var parameter 8 g position_11 $end
$var parameter 8 h position_12 $end
$var parameter 8 i position_13 $end
$var parameter 8 j position_14 $end
$var parameter 8 k position_15 $end
$var parameter 8 l position_16 $end
$var parameter 8 m position_17 $end
$var parameter 8 n position_18 $end
$var parameter 8 o position_19 $end
$var parameter 8 p position_20 $end
$var parameter 8 q position_21 $end
$var parameter 8 r position_22 $end
$var parameter 8 s position_23 $end
$var parameter 8 t position_24 $end
$var parameter 8 u position_25 $end
$var parameter 8 v position_26 $end
$var parameter 8 w position_27 $end
$var parameter 8 x position_28 $end
$var parameter 8 y position_29 $end
$var parameter 8 z position_30 $end
$var parameter 8 { position_31 $end
$var parameter 8 | position_32 $end
$var parameter 8 } position_33 $end
$var parameter 8 ~ position_34 $end
$var parameter 8 !" position_35 $end
$var parameter 8 "" position_36 $end
$var parameter 8 #" position_37 $end
$var parameter 8 $" position_38 $end
$var parameter 8 %" position_39 $end
$var parameter 8 &" position_40 $end
$var parameter 8 '" position_41 $end
$var parameter 8 (" position_42 $end
$var parameter 8 )" position_43 $end
$var parameter 8 *" position_44 $end
$var parameter 8 +" position_45 $end
$var parameter 8 ," position_46 $end
$var parameter 8 -" position_47 $end
$var parameter 8 ." position_48 $end
$var parameter 8 /" position_49 $end
$var parameter 8 0" position_50 $end
$var parameter 8 1" position_51 $end
$var parameter 8 2" position_52 $end
$var reg 8 3" next_card [7:0] $end
$scope function card_selector $end
$var reg 8 4" card [7:0] $end
$upscope $end
$scope module inst $end
$var wire 1 " clk_dp_c_i $end
$var wire 1 # req_card_state_dp_c_i $end
$var wire 1 $ rst_dp_c_i $end
$var parameter 8 5" B3_01 $end
$var parameter 8 6" B3_02 $end
$var parameter 8 7" B3_03 $end
$var parameter 8 8" B3_04 $end
$var parameter 8 9" B3_05 $end
$var parameter 8 :" B3_06 $end
$var parameter 8 ;" B3_07 $end
$var parameter 8 <" B3_08 $end
$var parameter 8 =" B3_09 $end
$var parameter 8 >" B3_10 $end
$var parameter 8 ?" B3_11 $end
$var parameter 8 @" B3_12 $end
$var parameter 8 A" B3_13 $end
$var parameter 8 B" B3_14 $end
$var parameter 8 C" B3_15 $end
$var parameter 8 D" B3_16 $end
$var parameter 8 E" B3_17 $end
$var parameter 8 F" B3_18 $end
$var parameter 8 G" B3_19 $end
$var parameter 8 H" B3_20 $end
$var parameter 8 I" B3_21 $end
$var parameter 8 J" B3_22 $end
$var parameter 8 K" B3_23 $end
$var parameter 8 L" B3_24 $end
$var parameter 8 M" B3_25 $end
$var parameter 8 N" B3_26 $end
$var parameter 8 O" B3_27 $end
$var parameter 8 P" B3_28 $end
$var parameter 8 Q" B3_29 $end
$var parameter 8 R" B3_30 $end
$var parameter 8 S" B3_31 $end
$var parameter 8 T" B3_32 $end
$var parameter 8 U" B3_33 $end
$var parameter 8 V" B3_34 $end
$var parameter 8 W" B3_35 $end
$var parameter 8 X" B3_36 $end
$var parameter 8 Y" B3_37 $end
$var parameter 8 Z" B3_38 $end
$var parameter 8 [" B3_39 $end
$var parameter 8 \" B3_40 $end
$var parameter 8 ]" B3_41 $end
$var parameter 8 ^" B3_42 $end
$var parameter 8 _" B3_43 $end
$var parameter 8 `" B3_44 $end
$var parameter 8 a" B3_45 $end
$var parameter 8 b" B3_46 $end
$var parameter 8 c" B3_47 $end
$var parameter 8 d" B3_48 $end
$var parameter 8 e" B3_49 $end
$var parameter 8 f" B3_50 $end
$var parameter 8 g" B3_51 $end
$var parameter 8 h" B3_52 $end
$var parameter 32 i" IDLE $end
$var parameter 32 j" SEND $end
$var parameter 8 k" position_01 $end
$var parameter 8 l" position_02 $end
$var parameter 8 m" position_03 $end
$var parameter 8 n" position_04 $end
$var parameter 8 o" position_05 $end
$var parameter 8 p" position_06 $end
$var parameter 8 q" position_07 $end
$var parameter 8 r" position_08 $end
$var parameter 8 s" position_09 $end
$var parameter 8 t" position_10 $end
$var parameter 8 u" position_11 $end
$var parameter 8 v" position_12 $end
$var parameter 8 w" position_13 $end
$var parameter 8 x" position_14 $end
$var parameter 8 y" position_15 $end
$var parameter 8 z" position_16 $end
$var parameter 8 {" position_17 $end
$var parameter 8 |" position_18 $end
$var parameter 8 }" position_19 $end
$var parameter 8 ~" position_20 $end
$var parameter 8 !# position_21 $end
$var parameter 8 "# position_22 $end
$var parameter 8 ## position_23 $end
$var parameter 8 $# position_24 $end
$var parameter 8 %# position_25 $end
$var parameter 8 &# position_26 $end
$var parameter 8 '# position_27 $end
$var parameter 8 (# position_28 $end
$var parameter 8 )# position_29 $end
$var parameter 8 *# position_30 $end
$var parameter 8 +# position_31 $end
$var parameter 8 ,# position_32 $end
$var parameter 8 -# position_33 $end
$var parameter 8 .# position_34 $end
$var parameter 8 /# position_35 $end
$var parameter 8 0# position_36 $end
$var parameter 8 1# position_37 $end
$var parameter 8 2# position_38 $end
$var parameter 8 3# position_39 $end
$var parameter 8 4# position_40 $end
$var parameter 8 5# position_41 $end
$var parameter 8 6# position_42 $end
$var parameter 8 7# position_43 $end
$var parameter 8 8# position_44 $end
$var parameter 8 9# position_45 $end
$var parameter 8 :# position_46 $end
$var parameter 8 ;# position_47 $end
$var parameter 8 <# position_48 $end
$var parameter 8 =# position_49 $end
$var parameter 8 ># position_50 $end
$var parameter 8 ?# position_51 $end
$var parameter 8 @# position_52 $end
$var reg 8 A# card_counter [7:0] $end
$var reg 8 B# next_card_o [7:0] $end
$var reg 1 C# state $end
$upscope $end
$upscope $end
$scope begin Clock_generator $end
$upscope $end
$scope begin Wavedump $end
$upscope $end
$scope task Increment $end
$upscope $end
$scope task Initial_state $end
$upscope $end
$upscope $end
$enddefinitions $end
$comment Show the parameter values. $end
$dumpall
b100110 @#
b110010 ?#
b110 >#
b11101 =#
b111100 <#
b101000 ;#
b101101 :#
b1101 9#
b111010 8#
b1 7#
b10101 6#
b111011 5#
b1001 4#
b100111 3#
b100 2#
b100100 1#
b101 0#
b111 /#
b10111 .#
b111001 -#
b11 ,#
b110101 +#
b100010 *#
b11001 )#
b1000 (#
b100101 '#
b110110 &#
b10110 %#
b11100 $#
b101100 ##
b10100 "#
b10001 !#
b100001 ~"
b111101 }"
b11000 |"
b11011 {"
b110111 z"
b111000 y"
b10010 x"
b1010 w"
b101011 v"
b101010 u"
b110100 t"
b10 s"
b10011 r"
b101001 q"
b100011 p"
b11010 o"
b1011 n"
b110001 m"
b1100 l"
b110011 k"
b1 j"
b0 i"
b111101 h"
b111100 g"
b111011 f"
b111010 e"
b111001 d"
b111000 c"
b110111 b"
b110110 a"
b110101 `"
b110100 _"
b110011 ^"
b110010 ]"
b110001 \"
b101101 ["
b101100 Z"
b101011 Y"
b101010 X"
b101001 W"
b101000 V"
b100111 U"
b100110 T"
b100101 S"
b100100 R"
b100011 Q"
b100010 P"
b100001 O"
b11101 N"
b11100 M"
b11011 L"
b11010 K"
b11001 J"
b11000 I"
b10111 H"
b10110 G"
b10101 F"
b10100 E"
b10011 D"
b10010 C"
b10001 B"
b1101 A"
b1100 @"
b1011 ?"
b1010 >"
b1001 ="
b1000 <"
b111 ;"
b110 :"
b101 9"
b100 8"
b11 7"
b10 6"
b1 5"
b100110 2"
b110010 1"
b110 0"
b11101 /"
b111100 ."
b101000 -"
b101101 ,"
b1101 +"
b111010 *"
b1 )"
b10101 ("
b111011 '"
b1001 &"
b100111 %"
b100 $"
b100100 #"
b101 ""
b111 !"
b10111 ~
b111001 }
b11 |
b110101 {
b100010 z
b11001 y
b1000 x
b100101 w
b110110 v
b10110 u
b11100 t
b101100 s
b10100 r
b10001 q
b100001 p
b111101 o
b11000 n
b11011 m
b110111 l
b111000 k
b10010 j
b1010 i
b101011 h
b101010 g
b110100 f
b10 e
b10011 d
b101001 c
b100011 b
b11010 a
b1011 `
b110001 _
b1100 ^
b110011 ]
b1 \
b0 [
b111101 Z
b111100 Y
b111011 X
b111010 W
b111001 V
b111000 U
b110111 T
b110110 S
b110101 R
b110100 Q
b110011 P
b110010 O
b110001 N
b101101 M
b101100 L
b101011 K
b101010 J
b101001 I
b101000 H
b100111 G
b100110 F
b100101 E
b100100 D
b100011 C
b100010 B
b100001 A
b11101 @
b11100 ?
b11011 >
b11010 =
b11001 <
b11000 ;
b10111 :
b10110 9
b10101 8
b10100 7
b10011 6
b10010 5
b10001 4
b1101 3
b1100 2
b1011 1
b1010 0
b1001 /
b1000 .
b111 -
b110 ,
b101 +
b100 *
b11 )
b10 (
b1 '
$end
#0
$dumpvars
0C#
b0 B#
b0 A#
bx 4"
b0 3"
b0 &
b0 %
0$
0#
0"
b0 !
$end
#5000
1"
#10000
1C#
0"
1#
1$
#15000
b1 &
b1 B#
b1 A#
b0 4"
1"
#20000
0"
1#
#25000
b10 &
b10 B#
b110011 !
b110011 %
b110011 3"
b10 A#
b1 4"
1"
#30000
0"
1#
#35000
b11 &
b11 B#
b11 A#
b1100 !
b1100 %
b1100 3"
b10 4"
1"
#40000
0"
1#
#45000
b100 &
b100 B#
b110001 !
b110001 %
b110001 3"
b100 A#
b11 4"
1"
#50000
0"
1#
#55000
b101 &
b101 B#
b101 A#
b1011 !
b1011 %
b1011 3"
b100 4"
1"
#60000
0"
1#
#65000
b110 &
b110 B#
b11010 !
b11010 %
b11010 3"
b110 A#
b101 4"
1"
#70000
0"
1#
#75000
b111 &
b111 B#
b111 A#
b100011 !
b100011 %
b100011 3"
b110 4"
1"
#80000
0"
1#
#85000
b1000 &
b1000 B#
b101001 !
b101001 %
b101001 3"
b1000 A#
b111 4"
1"
#90000
0"
1#
#95000
b1001 &
b1001 B#
b1001 A#
b10011 !
b10011 %
b10011 3"
b1000 4"
1"
#100000
0"
1#
#105000
b1010 &
b1010 B#
b10 !
b10 %
b10 3"
b1010 A#
b1001 4"
1"
#110000
0"
1#
#115000
b1011 &
b1011 B#
b1011 A#
b110100 !
b110100 %
b110100 3"
b1010 4"
1"
#120000
0"
1#
#125000
b1100 &
b1100 B#
b101010 !
b101010 %
b101010 3"
b1100 A#
b1011 4"
1"
#130000
0"
1#
#135000
b1101 &
b1101 B#
b1101 A#
b101011 !
b101011 %
b101011 3"
b1100 4"
1"
#140000
0"
1#
#145000
b1110 &
b1110 B#
b1010 !
b1010 %
b1010 3"
b1110 A#
b1101 4"
1"
#150000
0"
1#
#155000
b1111 &
b1111 B#
b1111 A#
b10010 !
b10010 %
b10010 3"
b1110 4"
1"
#160000
0"
1#
#165000
b10000 &
b10000 B#
b111000 !
b111000 %
b111000 3"
b10000 A#
b1111 4"
1"
#170000
0"
1#
#175000
b10001 &
b10001 B#
b10001 A#
b110111 !
b110111 %
b110111 3"
b10000 4"
1"
#180000
0"
1#
#185000
b10010 &
b10010 B#
b11011 !
b11011 %
b11011 3"
b10010 A#
b10001 4"
1"
#190000
0"
1#
#195000
b10011 &
b10011 B#
b10011 A#
b11000 !
b11000 %
b11000 3"
b10010 4"
1"
#200000
0"
1#
#205000
b10100 &
b10100 B#
b111101 !
b111101 %
b111101 3"
b10100 A#
b10011 4"
1"
#210000
0"
1#
#215000
b10101 &
b10101 B#
b10101 A#
b100001 !
b100001 %
b100001 3"
b10100 4"
1"
#220000
0"
1#
#225000
b10110 &
b10110 B#
b10001 !
b10001 %
b10001 3"
b10110 A#
b10101 4"
1"
#230000
0"
1#
#235000
b10111 &
b10111 B#
b10111 A#
b10100 !
b10100 %
b10100 3"
b10110 4"
1"
#240000
0"
1#
#245000
b11000 &
b11000 B#
b101100 !
b101100 %
b101100 3"
b11000 A#
b10111 4"
1"
#250000
0"
1#
#255000
b11001 &
b11001 B#
b11001 A#
b11100 !
b11100 %
b11100 3"
b11000 4"
1"
#260000
0"
1#
#265000
b11010 &
b11010 B#
b10110 !
b10110 %
b10110 3"
b11010 A#
b11001 4"
1"
#270000
0"
1#
#275000
b11011 &
b11011 B#
b11011 A#
b110110 !
b110110 %
b110110 3"
b11010 4"
1"
#280000
0"
1#
#285000
b11100 &
b11100 B#
b100101 !
b100101 %
b100101 3"
b11100 A#
b11011 4"
1"
#290000
0"
1#
#295000
b11101 &
b11101 B#
b11101 A#
b1000 !
b1000 %
b1000 3"
b11100 4"
1"
#300000
0"
1#
#305000
b11110 &
b11110 B#
b11001 !
b11001 %
b11001 3"
b11110 A#
b11101 4"
1"
#310000
0C#
0"
0#
