seed_random/seed_random_3/waveforms/top.vcd
$date
	Sat Jan 31 20:21:53 2026
$end
$version
	Icarus Verilog
$end
$timescale
	1ps
$end
$scope module testbench $end
$var wire 8 ! card_to_send_o [7:0] $end
$var reg 1 " clk_i $end
$var reg 1 # request_card_i $end
$var reg 1 $ rst_i $end
$scope module uut $end
$var wire 1 " clk_i $end
$var wire 1 # request_card_i $end
$var wire 1 $ rst_i $end
$var wire 1 % state_w $end
$var wire 8 & card_to_send_o [7:0] $end
$scope module inst1 $end
$var wire 1 " clk_cp_i $end
$var wire 1 # req_card_state_cp $end
$var wire 1 $ rst_cp_i $end
$var wire 1 % state_o $end
$var parameter 32 ' IDLE $end
$var parameter 32 ( SEND $end
$var reg 1 ) next_state $end
$upscope $end
$scope module inst2 $end
$var wire 8 * card_to_send_dp_o [7:0] $end
$var wire 1 " clk_dp_i $end
$var wire 1 % req_card_state_dp_i $end
$var wire 1 $ rst_dp_i $end
$var wire 8 + card_to_send [7:0] $end
$var parameter 8 , B3_01 $end
$var parameter 8 - B3_02 $end
$var parameter 8 . B3_03 $end
$var parameter 8 / B3_04 $end
$var parameter 8 0 B3_05 $end
$var parameter 8 1 B3_06 $end
$var parameter 8 2 B3_07 $end
$var parameter 8 3 B3_08 $end
$var parameter 8 4 B3_09 $end
$var parameter 8 5 B3_10 $end
$var parameter 8 6 B3_11 $end
$var parameter 8 7 B3_12 $end
$var parameter 8 8 B3_13 $end
$var parameter 8 9 B3_14 $end
$var parameter 8 : B3_15 $end
$var parameter 8 ; B3_16 $end
$var parameter 8 < B3_17 $end
$var parameter 8 = B3_18 $end
$var parameter 8 > B3_19 $end
$var parameter 8 ? B3_20 $end
$var parameter 8 @ B3_21 $end
$var parameter 8 A B3_22 $end
$var parameter 8 B B3_23 $end
$var parameter 8 C B3_24 $end
$var parameter 8 D B3_25 $end
$var parameter 8 E B3_26 $end
$var parameter 8 F B3_27 $end
$var parameter 8 G B3_28 $end
$var parameter 8 H B3_29 $end
$var parameter 8 I B3_30 $end
$var parameter 8 J B3_31 $end
$var parameter 8 K B3_32 $end
$var parameter 8 L B3_33 $end
$var parameter 8 M B3_34 $end
$var parameter 8 N B3_35 $end
$var parameter 8 O B3_36 $end
$var parameter 8 P B3_37 $end
$var parameter 8 Q B3_38 $end
$var parameter 8 R B3_39 $end
$var parameter 8 S B3_40 $end
$var parameter 8 T B3_41 $end
$var parameter 8 U B3_42 $end
$var parameter 8 V B3_43 $end
$var parameter 8 W B3_44 $end
$var parameter 8 X B3_45 $end
$var parameter 8 Y B3_46 $end
$var parameter 8 Z B3_47 $end
$var parameter 8 [ B3_48 $end
$var parameter 8 \ B3_49 $end
$var parameter 8 ] B3_50 $end
$var parameter 8 ^ B3_51 $end
$var parameter 8 _ B3_52 $end
$var parameter 32 ` IDLE $end
$var parameter 32 a SEND $end
$var parameter 8 b position_01 $end
$var parameter 8 c position_02 $end
$var parameter 8 d position_03 $end
$var parameter 8 e position_04 $end
$var parameter 8 f position_05 $end
$var parameter 8 g position_06 $end
$var parameter 8 h position_07 $end
$var parameter 8 i position_08 $end
$var parameter 8 j position_09 $end
$var parameter 8 k position_10 $end
$var parameter 8 l position_11 $end
$var parameter 8 m position_12 $end
$var parameter 8 n position_13 $end
$var parameter 8 o position_14 $end
$var parameter 8 p position_15 $end
$var parameter 8 q position_16 $end
$var parameter 8 r position_17 $end
$var parameter 8 s position_18 $end
$var parameter 8 t position_19 $end
$var parameter 8 u position_20 $end
$var parameter 8 v position_21 $end
$var parameter 8 w position_22 $end
$var parameter 8 x position_23 $end
$var parameter 8 y position_24 $end
$var parameter 8 z position_25 $end
$var parameter 8 { position_26 $end
$var parameter 8 | position_27 $end
$var parameter 8 } position_28 $end
$var parameter 8 ~ position_29 $end
$var parameter 8 !" position_30 $end
$var parameter 8 "" position_31 $end
$var parameter 8 #" position_32 $end
$var parameter 8 $" position_33 $end
$var parameter 8 %" position_34 $end
$var parameter 8 &" position_35 $end
$var parameter 8 '" position_36 $end
$var parameter 8 (" position_37 $end
$var parameter 8 )" position_38 $end
$var parameter 8 *" position_39 $end
$var parameter 8 +" position_40 $end
$var parameter 8 ," position_41 $end
$var parameter 8 -" position_42 $end
$var parameter 8 ." position_43 $end
$var parameter 8 /" position_44 $end
$var parameter 8 0" position_45 $end
$var parameter 8 1" position_46 $end
$var parameter 8 2" position_47 $end
$var parameter 8 3" position_48 $end
$var parameter 8 4" position_49 $end
$var parameter 8 5" position_50 $end
$var parameter 8 6" position_51 $end
$var parameter 8 7" position_52 $end
$var reg 8 8" next_card [7:0] $end
$scope function card_selector $end
$var reg 8 9" card [7:0] $end
$upscope $end
$scope module inst $end
$var wire 1 " clk_dp_c_i $end
$var wire 1 % req_card_state_dp_c_i $end
$var wire 1 $ rst_dp_c_i $end
$var parameter 8 :" B3_01 $end
$var parameter 8 ;" B3_02 $end
$var parameter 8 <" B3_03 $end
$var parameter 8 =" B3_04 $end
$var parameter 8 >" B3_05 $end
$var parameter 8 ?" B3_06 $end
$var parameter 8 @" B3_07 $end
$var parameter 8 A" B3_08 $end
$var parameter 8 B" B3_09 $end
$var parameter 8 C" B3_10 $end
$var parameter 8 D" B3_11 $end
$var parameter 8 E" B3_12 $end
$var parameter 8 F" B3_13 $end
$var parameter 8 G" B3_14 $end
$var parameter 8 H" B3_15 $end
$var parameter 8 I" B3_16 $end
$var parameter 8 J" B3_17 $end
$var parameter 8 K" B3_18 $end
$var parameter 8 L" B3_19 $end
$var parameter 8 M" B3_20 $end
$var parameter 8 N" B3_21 $end
$var parameter 8 O" B3_22 $end
$var parameter 8 P" B3_23 $end
$var parameter 8 Q" B3_24 $end
$var parameter 8 R" B3_25 $end
$var parameter 8 S" B3_26 $end
$var parameter 8 T" B3_27 $end
$var parameter 8 U" B3_28 $end
$var parameter 8 V" B3_29 $end
$var parameter 8 W" B3_30 $end
$var parameter 8 X" B3_31 $end
$var parameter 8 Y" B3_32 $end
$var parameter 8 Z" B3_33 $end
$var parameter 8 [" B3_34 $end
$var parameter 8 \" B3_35 $end
$var parameter 8 ]" B3_36 $end
$var parameter 8 ^" B3_37 $end
$var parameter 8 _" B3_38 $end
$var parameter 8 `" B3_39 $end
$var parameter 8 a" B3_40 $end
$var parameter 8 b" B3_41 $end
$var parameter 8 c" B3_42 $end
$var parameter 8 d" B3_43 $end
$var parameter 8 e" B3_44 $end
$var parameter 8 f" B3_45 $end
$var parameter 8 g" B3_46 $end
$var parameter 8 h" B3_47 $end
$var parameter 8 i" B3_48 $end
$var parameter 8 j" B3_49 $end
$var parameter 8 k" B3_50 $end
$var parameter 8 l" B3_51 $end
$var parameter 8 m" B3_52 $end
$var parameter 32 n" IDLE $end
$var parameter 32 o" SEND $end
$var parameter 8 p" position_01 $end
$var parameter 8 q" position_02 $end
$var parameter 8 r" position_03 $end
$var parameter 8 s" position_04 $end
$var parameter 8 t" position_05 $end
$var parameter 8 u" position_06 $end
$var parameter 8 v" position_07 $end
$var parameter 8 w" position_08 $end
$var parameter 8 x" position_09 $end
$var parameter 8 y" position_10 $end
$var parameter 8 z" position_11 $end
$var parameter 8 {" position_12 $end
$var parameter 8 |" position_13 $end
$var parameter 8 }" position_14 $end
$var parameter 8 ~" position_15 $end
$var parameter 8 !# position_16 $end
$var parameter 8 "# position_17 $end
$var parameter 8 ## position_18 $end
$var parameter 8 $# position_19 $end
$var parameter 8 %# position_20 $end
$var parameter 8 &# position_21 $end
$var parameter 8 '# position_22 $end
$var parameter 8 (# position_23 $end
$var parameter 8 )# position_24 $end
$var parameter 8 *# position_25 $end
$var parameter 8 +# position_26 $end
$var parameter 8 ,# position_27 $end
$var parameter 8 -# position_28 $end
$var parameter 8 .# position_29 $end
$var parameter 8 /# position_30 $end
$var parameter 8 0# position_31 $end
$var parameter 8 1# position_32 $end
$var parameter 8 2# position_33 $end
$var parameter 8 3# position_34 $end
$var parameter 8 4# position_35 $end
$var parameter 8 5# position_36 $end
$var parameter 8 6# position_37 $end
$var parameter 8 7# position_38 $end
$var parameter 8 8# position_39 $end
$var parameter 8 9# position_40 $end
$var parameter 8 :# position_41 $end
$var parameter 8 ;# position_42 $end
$var parameter 8 <# position_43 $end
$var parameter 8 =# position_44 $end
$var parameter 8 ># position_45 $end
$var parameter 8 ?# position_46 $end
$var parameter 8 @# position_47 $end
$var parameter 8 A# position_48 $end
$var parameter 8 B# position_49 $end
$var parameter 8 C# position_50 $end
$var parameter 8 D# position_51 $end
$var parameter 8 E# position_52 $end
$var reg 8 F# card_counter [7:0] $end
$var reg 8 G# next_card_o [7:0] $end
$var reg 1 H# state $end
$upscope $end
$upscope $end
$upscope $end
$scope begin Clock_generator $end
$upscope $end
$scope begin Wavedump $end
$upscope $end
$upscope $end
$enddefinitions $end
$comment Show the parameter values. $end
$dumpall
b100110 E#
b110010 D#
b110 C#
b11101 B#
b111100 A#
b101000 @#
b101101 ?#
b1101 >#
b111010 =#
b1 <#
b10101 ;#
b111011 :#
b1001 9#
b100111 8#
b100 7#
b100100 6#
b101 5#
b111 4#
b10111 3#
b111001 2#
b11 1#
b110101 0#
b100010 /#
b11001 .#
b1000 -#
b100101 ,#
b110110 +#
b10110 *#
b11100 )#
b101100 (#
b10100 '#
b10001 &#
b100001 %#
b111101 $#
b11000 ##
b11011 "#
b110111 !#
b111000 ~"
b10010 }"
b1010 |"
b101011 {"
b101010 z"
b110100 y"
b10 x"
b10011 w"
b101001 v"
b100011 u"
b11010 t"
b1011 s"
b110001 r"
b1100 q"
b110011 p"
b1 o"
b0 n"
b111101 m"
b111100 l"
b111011 k"
b111010 j"
b111001 i"
b111000 h"
b110111 g"
b110110 f"
b110101 e"
b110100 d"
b110011 c"
b110010 b"
b110001 a"
b101101 `"
b101100 _"
b101011 ^"
b101010 ]"
b101001 \"
b101000 ["
b100111 Z"
b100110 Y"
b100101 X"
b100100 W"
b100011 V"
b100010 U"
b100001 T"
b11101 S"
b11100 R"
b11011 Q"
b11010 P"
b11001 O"
b11000 N"
b10111 M"
b10110 L"
b10101 K"
b10100 J"
b10011 I"
b10010 H"
b10001 G"
b1101 F"
b1100 E"
b1011 D"
b1010 C"
b1001 B"
b1000 A"
b111 @"
b110 ?"
b101 >"
b100 ="
b11 <"
b10 ;"
b1 :"
b100110 7"
b110010 6"
b110 5"
b11101 4"
b111100 3"
b101000 2"
b101101 1"
b1101 0"
b111010 /"
b1 ."
b10101 -"
b111011 ,"
b1001 +"
b100111 *"
b100 )"
b100100 ("
b101 '"
b111 &"
b10111 %"
b111001 $"
b11 #"
b110101 ""
b100010 !"
b11001 ~
b1000 }
b100101 |
b110110 {
b10110 z
b11100 y
b101100 x
b10100 w
b10001 v
b100001 u
b111101 t
b11000 s
b11011 r
b110111 q
b111000 p
b10010 o
b1010 n
b101011 m
b101010 l
b110100 k
b10 j
b10011 i
b101001 h
b100011 g
b11010 f
b1011 e
b110001 d
b1100 c
b110011 b
b1 a
b0 `
b111101 _
b111100 ^
b111011 ]
b111010 \
b111001 [
b111000 Z
b110111 Y
b110110 X
b110101 W
b110100 V
b110011 U
b110010 T
b110001 S
b101101 R
b101100 Q
b101011 P
b101010 O
b101001 N
b101000 M
b100111 L
b100110 K
b100101 J
b100100 I
b100011 H
b100010 G
b100001 F
b11101 E
b11100 D
b11011 C
b11010 B
b11001 A
b11000 @
b10111 ?
b10110 >
b10101 =
b10100 <
b10011 ;
b10010 :
b10001 9
b1101 8
b1100 7
b1011 6
b1010 5
b1001 4
b1000 3
b111 2
b110 1
b101 0
b100 /
b11 .
b10 -
b1 ,
b1 (
b0 '
$end
#0
$dumpvars
0H#
b0 G#
b0 F#
bx 9"
b0 8"
b0 +
b0 *
0)
b0 &
0%
0$
x#
0"
b0 !
$end
#5000
1"
#10000
0"
1$
#15000
b0 9"
1"
#20000
0"
0#
#25000
1"
#30000
0"
#35000
1"
#40000
0"
#45000
1"
#50000
0"
#55000
1"
#60000
0"
#65000
1"
#70000
0"
1#
#75000
1H#
1%
1)
1"
#80000
0"
#85000
b1 +
b1 G#
b1 F#
1"
#90000
0"
#95000
b10 +
b10 G#
b10 F#
b110011 !
b110011 &
b110011 *
b110011 8"
b1 9"
1"
#100000
0"
#105000
b11 +
b11 G#
b1100 !
b1100 &
b1100 *
b1100 8"
b11 F#
b10 9"
1"
#110000
0"
#115000
b100 +
b100 G#
b100 F#
b110001 !
b110001 &
b110001 *
b110001 8"
b11 9"
1"
#120000
0"
#125000
b101 +
b101 G#
b1011 !
b1011 &
b1011 *
b1011 8"
b101 F#
b100 9"
1"
#130000
0"
#135000
b110 +
b110 G#
b110 F#
b11010 !
b11010 &
b11010 *
b11010 8"
b101 9"
1"
#140000
0"
#145000
b111 +
b111 G#
b100011 !
b100011 &
b100011 *
b100011 8"
b111 F#
b110 9"
1"
#150000
0"
#155000
b1000 +
b1000 G#
b1000 F#
b101001 !
b101001 &
b101001 *
b101001 8"
b111 9"
1"
#160000
0"
#165000
b1001 +
b1001 G#
b10011 !
b10011 &
b10011 *
b10011 8"
b1001 F#
b1000 9"
1"
#170000
0"
0#
#175000
b1010 +
b1010 G#
0H#
0%
0)
b1010 F#
b10 !
b10 &
b10 *
b10 8"
b1001 9"
1"
#180000
0"
#185000
b110100 !
b110100 &
b110100 *
b110100 8"
b1010 9"
1"
#190000
0"
#195000
1H#
1%
1)
1"
1#
#200000
0"
#205000
b1011 +
b1011 G#
b1011 F#
1"
#210000
0"
#215000
b1100 +
b1100 G#
b1100 F#
b101010 !
b101010 &
b101010 *
b101010 8"
b1011 9"
1"
#220000
0"
0#
#225000
b1101 +
b1101 G#
0H#
b101011 !
b101011 &
b101011 *
b101011 8"
b1101 F#
0%
0)
b1100 9"
1"
#230000
0"
#235000
b1010 !
b1010 &
b1010 *
b1010 8"
b1101 9"
1"
#240000
0"
#245000
1H#
1%
1)
1"
1#
#250000
0"
#255000
b1110 +
b1110 G#
b1110 F#
1"
#260000
0"
#265000
b1111 +
b1111 G#
b10010 !
b10010 &
b10010 *
b10010 8"
b1111 F#
b1110 9"
1"
#270000
0"
0#
#275000
b10000 +
b10000 G#
0H#
0%
0)
b10000 F#
b111000 !
b111000 &
b111000 *
b111000 8"
b1111 9"
1"
#280000
0"
#285000
b110111 !
b110111 &
b110111 *
b110111 8"
b10000 9"
1"
#290000
0"
#295000
1H#
1%
1)
1"
1#
#300000
0"
#305000
b10001 +
b10001 G#
b10001 F#
1"
#310000
0"
#315000
b10010 +
b10010 G#
b10010 F#
b11011 !
b11011 &
b11011 *
b11011 8"
b10001 9"
1"
#320000
0"
0#
#325000
b10011 +
b10011 G#
0H#
b11000 !
b11000 &
b11000 *
b11000 8"
b10011 F#
0%
0)
b10010 9"
1"
#330000
0"
#335000
b111101 !
b111101 &
b111101 *
b111101 8"
b10011 9"
1"
#340000
0"
#345000
1H#
1%
1)
1"
1#
#350000
0"
#355000
b10100 +
b10100 G#
b10100 F#
1"
#360000
0"
#365000
b10101 +
b10101 G#
b100001 !
b100001 &
b100001 *
b100001 8"
b10101 F#
b10100 9"
1"
#370000
0"
#375000
b10110 +
b10110 G#
b10110 F#
b10001 !
b10001 &
b10001 *
b10001 8"
b10101 9"
1"
#380000
0"
#385000
b10111 +
b10111 G#
b10100 !
b10100 &
b10100 *
b10100 8"
b10111 F#
b10110 9"
1"
#390000
0"
#395000
b11000 +
b11000 G#
b11000 F#
b101100 !
b101100 &
b101100 *
b101100 8"
b10111 9"
1"
#400000
0"
#405000
b11001 +
b11001 G#
b11100 !
b11100 &
b11100 *
b11100 8"
b11001 F#
b11000 9"
1"
#410000
0"
#415000
b11010 +
b11010 G#
b11010 F#
b10110 !
b10110 &
b10110 *
b10110 8"
b11001 9"
1"
#420000
0"
#425000
b11011 +
b11011 G#
b110110 !
b110110 &
b110110 *
b110110 8"
b11011 F#
b11010 9"
1"
#430000
0"
#435000
b11100 +
b11100 G#
b11100 F#
b100101 !
b100101 &
b100101 *
b100101 8"
b11011 9"
1"
#440000
0"
#445000
b11101 +
b11101 G#
b1000 !
b1000 &
b1000 *
b1000 8"
b11101 F#
b11100 9"
1"
#450000
0"
#455000
b11110 +
b11110 G#
b11110 F#
b11001 !
b11001 &
b11001 *
b11001 8"
b11101 9"
1"
#460000
0"
#465000
b11111 +
b11111 G#
b100010 !
b100010 &
b100010 *
b100010 8"
b11111 F#
b11110 9"
1"
#470000
0"
#475000
b100000 +
b100000 G#
b100000 F#
b110101 !
b110101 &
b110101 *
b110101 8"
b11111 9"
1"
#480000
0"
#485000
b100001 +
b100001 G#
b11 !
b11 &
b11 *
b11 8"
b100001 F#
b100000 9"
1"
#490000
0"
#495000
b100010 +
b100010 G#
b100010 F#
b111001 !
b111001 &
b111001 *
b111001 8"
b100001 9"
1"
#500000
0"
#505000
b100011 +
b100011 G#
b10111 !
b10111 &
b10111 *
b10111 8"
b100011 F#
b100010 9"
1"
#510000
0"
#515000
b100100 +
b100100 G#
b100100 F#
b111 !
b111 &
b111 *
b111 8"
b100011 9"
1"
#520000
0"
#525000
b100101 +
b100101 G#
b101 !
b101 &
b101 *
b101 8"
b100101 F#
b100100 9"
1"
#530000
0"
#535000
b100110 +
b100110 G#
b100110 F#
b100100 !
b100100 &
b100100 *
b100100 8"
b100101 9"
1"
#540000
0"
#545000
b100111 +
b100111 G#
b100 !
b100 &
b100 *
b100 8"
b100111 F#
b100110 9"
1"
#550000
0"
#555000
b101000 +
b101000 G#
b101000 F#
b100111 !
b100111 &
b100111 *
b100111 8"
b100111 9"
1"
#560000
0"
#565000
b101001 +
b101001 G#
b1001 !
b1001 &
b1001 *
b1001 8"
b101001 F#
b101000 9"
1"
#570000
0"
#575000
b101010 +
b101010 G#
b101010 F#
b111011 !
b111011 &
b111011 *
b111011 8"
b101001 9"
1"
#580000
0"
#585000
b101011 +
b101011 G#
b10101 !
b10101 &
b10101 *
b10101 8"
b101011 F#
b101010 9"
1"
#590000
0"
#595000
b101100 +
b101100 G#
b101100 F#
b1 !
b1 &
b1 *
b1 8"
b101011 9"
1"
#600000
0"
#605000
b101101 +
b101101 G#
b111010 !
b111010 &
b111010 *
b111010 8"
b101101 F#
b101100 9"
1"
#610000
0"
#615000
b101110 +
b101110 G#
b101110 F#
b1101 !
b1101 &
b1101 *
b1101 8"
b101101 9"
1"
#620000
0"
#625000
b101111 +
b101111 G#
b101101 !
b101101 &
b101101 *
b101101 8"
b101111 F#
b101110 9"
1"
#630000
0"
#635000
b110000 +
b110000 G#
b110000 F#
b101000 !
b101000 &
b101000 *
b101000 8"
b101111 9"
1"
#640000
0"
#645000
b110001 +
b110001 G#
b111100 !
b111100 &
b111100 *
b111100 8"
b110001 F#
b110000 9"
1"
#650000
0"
#655000
b110010 +
b110010 G#
b110010 F#
b11101 !
b11101 &
b11101 *
b11101 8"
b110001 9"
1"
#660000
0"
#665000
b110011 +
b110011 G#
b110 !
b110 &
b110 *
b110 8"
b110011 F#
b110010 9"
1"
#670000
0"
#675000
b110100 +
b110100 G#
b110100 F#
b110010 !
b110010 &
b110010 *
b110010 8"
b110011 9"
1"
#680000
0"
#685000
b0 +
b0 G#
b100110 !
b100110 &
b100110 *
b100110 8"
b0 F#
b110100 9"
1"
#690000
0"
#695000
b1 +
b1 G#
b1 F#
b0 !
b0 &
b0 *
b0 8"
b0 9"
1"
#700000
0"
#705000
b10 +
b10 G#
b110011 !
b110011 &
b110011 *
b110011 8"
b10 F#
b1 9"
1"
#710000
0"
#715000
b11 +
b11 G#
b11 F#
b1100 !
b1100 &
b1100 *
b1100 8"
b10 9"
1"
#720000
0"
#725000
b100 +
b100 G#
b110001 !
b110001 &
b110001 *
b110001 8"
b100 F#
b11 9"
1"
#730000
0"
#735000
b101 +
b101 G#
b101 F#
b1011 !
b1011 &
b1011 *
b1011 8"
b100 9"
1"
#740000
0"
#745000
b110 +
b110 G#
b11010 !
b11010 &
b11010 *
b11010 8"
b110 F#
b101 9"
1"
#750000
0"
#755000
b111 +
b111 G#
b111 F#
b100011 !
b100011 &
b100011 *
b100011 8"
b110 9"
1"
#760000
0"
#765000
b1000 +
b1000 G#
b101001 !
b101001 &
b101001 *
b101001 8"
b1000 F#
b111 9"
1"
#770000
0"
#775000
b1001 +
b1001 G#
b1001 F#
b10011 !
b10011 &
b10011 *
b10011 8"
b1000 9"
1"
#780000
0"
#785000
b1010 +
b1010 G#
b10 !
b10 &
b10 *
b10 8"
b1010 F#
b1001 9"
1"
#790000
0"
#795000
b1011 +
b1011 G#
b1011 F#
b110100 !
b110100 &
b110100 *
b110100 8"
b1010 9"
1"
#800000
0"
#805000
b1100 +
b1100 G#
b101010 !
b101010 &
b101010 *
b101010 8"
b1100 F#
b1011 9"
1"
#810000
0"
#815000
b1101 +
b1101 G#
b1101 F#
b101011 !
b101011 &
b101011 *
b101011 8"
b1100 9"
1"
#820000
0"
#825000
b1110 +
b1110 G#
b1010 !
b1010 &
b1010 *
b1010 8"
b1110 F#
b1101 9"
1"
#830000
0"
#835000
b1111 +
b1111 G#
b1111 F#
b10010 !
b10010 &
b10010 *
b10010 8"
b1110 9"
1"
#840000
0"
#845000
b10000 +
b10000 G#
b111000 !
b111000 &
b111000 *
b111000 8"
b10000 F#
b1111 9"
1"
#850000
0"
#855000
b10001 +
b10001 G#
b10001 F#
b110111 !
b110111 &
b110111 *
b110111 8"
b10000 9"
1"
#860000
0"
#865000
b10010 +
b10010 G#
b11011 !
b11011 &
b11011 *
b11011 8"
b10010 F#
b10001 9"
1"
#870000
0"
#875000
b10011 +
b10011 G#
b10011 F#
b11000 !
b11000 &
b11000 *
b11000 8"
b10010 9"
1"
#880000
0"
#885000
b10100 +
b10100 G#
b111101 !
b111101 &
b111101 *
b111101 8"
b10100 F#
b10011 9"
1"
#890000
0"
#895000
b10101 +
b10101 G#
b10101 F#
b100001 !
b100001 &
b100001 *
b100001 8"
b10100 9"
1"
#900000
0"
#905000
b10110 +
b10110 G#
b10001 !
b10001 &
b10001 *
b10001 8"
b10110 F#
b10101 9"
1"
#910000
0"
#915000
b10111 +
b10111 G#
b10111 F#
b10100 !
b10100 &
b10100 *
b10100 8"
b10110 9"
1"
#920000
0"
#925000
b11000 +
b11000 G#
b101100 !
b101100 &
b101100 *
b101100 8"
b11000 F#
b10111 9"
1"
#930000
0"
#935000
b11001 +
b11001 G#
b11001 F#
b11100 !
b11100 &
b11100 *
b11100 8"
b11000 9"
1"
#940000
0"
#945000
b11010 +
b11010 G#
b10110 !
b10110 &
b10110 *
b10110 8"
b11010 F#
b11001 9"
1"
#950000
0"
#955000
b11011 +
b11011 G#
b11011 F#
b110110 !
b110110 &
b110110 *
b110110 8"
b11010 9"
1"
#960000
0"
#965000
b11100 +
b11100 G#
b100101 !
b100101 &
b100101 *
b100101 8"
b11100 F#
b11011 9"
1"
#970000
0"
#975000
b11101 +
b11101 G#
b11101 F#
b1000 !
b1000 &
b1000 *
b1000 8"
b11100 9"
1"
#980000
0"
#985000
b11110 +
b11110 G#
b11001 !
b11001 &
b11001 *
b11001 8"
b11110 F#
b11101 9"
1"
#990000
0"
#995000
b11111 +
b11111 G#
b11111 F#
b100010 !
b100010 &
b100010 *
b100010 8"
b11110 9"
1"
#1000000
0"
#1005000
b100000 +
b100000 G#
b110101 !
b110101 &
b110101 *
b110101 8"
b100000 F#
b11111 9"
1"
#1010000
0"
#1015000
b100001 +
b100001 G#
b100001 F#
b11 !
b11 &
b11 *
b11 8"
b100000 9"
1"
#1020000
0"
#1025000
b100010 +
b100010 G#
b111001 !
b111001 &
b111001 *
b111001 8"
b100010 F#
b100001 9"
1"
#1030000
0"
#1035000
b100011 +
b100011 G#
b100011 F#
b10111 !
b10111 &
b10111 *
b10111 8"
b100010 9"
1"
#1040000
0"
#1045000
b100100 +
b100100 G#
b111 !
b111 &
b111 *
b111 8"
b100100 F#
b100011 9"
1"
#1050000
0"
#1055000
b100101 +
b100101 G#
b100101 F#
b101 !
b101 &
b101 *
b101 8"
b100100 9"
1"
#1060000
0"
#1065000
b100110 +
b100110 G#
b100100 !
b100100 &
b100100 *
b100100 8"
b100110 F#
b100101 9"
1"
#1070000
0"
#1075000
b100111 +
b100111 G#
b100111 F#
b100 !
b100 &
b100 *
b100 8"
b100110 9"
1"
#1080000
0"
#1085000
b101000 +
b101000 G#
b100111 !
b100111 &
b100111 *
b100111 8"
b101000 F#
b100111 9"
1"
#1090000
0"
#1095000
b101001 +
b101001 G#
b101001 F#
b1001 !
b1001 &
b1001 *
b1001 8"
b101000 9"
1"
#1100000
0"
#1105000
b101010 +
b101010 G#
b111011 !
b111011 &
b111011 *
b111011 8"
b101010 F#
b101001 9"
1"
#1110000
0"
#1115000
b101011 +
b101011 G#
b101011 F#
b10101 !
b10101 &
b10101 *
b10101 8"
b101010 9"
1"
#1120000
0"
#1125000
b101100 +
b101100 G#
b1 !
b1 &
b1 *
b1 8"
b101100 F#
b101011 9"
1"
#1130000
0"
#1135000
b101101 +
b101101 G#
b101101 F#
b111010 !
b111010 &
b111010 *
b111010 8"
b101100 9"
1"
#1140000
0"
#1145000
b101110 +
b101110 G#
b1101 !
b1101 &
b1101 *
b1101 8"
b101110 F#
b101101 9"
1"
#1150000
0"
#1155000
b101111 +
b101111 G#
b101111 F#
b101101 !
b101101 &
b101101 *
b101101 8"
b101110 9"
1"
#1160000
0"
#1165000
b110000 +
b110000 G#
b101000 !
b101000 &
b101000 *
b101000 8"
b110000 F#
b101111 9"
1"
#1170000
0"
#1175000
b110001 +
b110001 G#
b110001 F#
b111100 !
b111100 &
b111100 *
b111100 8"
b110000 9"
1"
#1180000
0"
#1185000
b110010 +
b110010 G#
b11101 !
b11101 &
b11101 *
b11101 8"
b110010 F#
b110001 9"
1"
#1190000
0"
#1195000
b110011 +
b110011 G#
b110011 F#
b110 !
b110 &
b110 *
b110 8"
b110010 9"
1"
#1200000
0"
#1205000
b110100 +
b110100 G#
b110010 !
b110010 &
b110010 *
b110010 8"
b110100 F#
b110011 9"
1"
#1210000
0"
#1215000
b0 +
b0 G#
b0 F#
b100110 !
b100110 &
b100110 *
b100110 8"
b110100 9"
1"
#1220000
0"
#1225000
b1 +
b1 G#
b0 !
b0 &
b0 *
b0 8"
b1 F#
b0 9"
1"
#1230000
0"
#1235000
b10 +
b10 G#
b10 F#
b110011 !
b110011 &
b110011 *
b110011 8"
b1 9"
1"
#1240000
0"
#1245000
b11 +
b11 G#
b1100 !
b1100 &
b1100 *
b1100 8"
b11 F#
b10 9"
1"
#1250000
0"
#1255000
b100 +
b100 G#
b100 F#
b110001 !
b110001 &
b110001 *
b110001 8"
b11 9"
1"
#1260000
0"
#1265000
b101 +
b101 G#
b1011 !
b1011 &
b1011 *
b1011 8"
b101 F#
b100 9"
1"
#1270000
0"
#1275000
b110 +
b110 G#
b110 F#
b11010 !
b11010 &
b11010 *
b11010 8"
b101 9"
1"
#1280000
0"
#1285000
b111 +
b111 G#
b100011 !
b100011 &
b100011 *
b100011 8"
b111 F#
b110 9"
1"
#1290000
0"
#1295000
b1000 +
b1000 G#
b1000 F#
b101001 !
b101001 &
b101001 *
b101001 8"
b111 9"
1"
#1300000
0"
#1305000
b1001 +
b1001 G#
b10011 !
b10011 &
b10011 *
b10011 8"
b1001 F#
b1000 9"
1"
#1310000
0"
#1315000
b1010 +
b1010 G#
b1010 F#
b10 !
b10 &
b10 *
b10 8"
b1001 9"
1"
#1320000
0"
#1325000
b1011 +
b1011 G#
b110100 !
b110100 &
b110100 *
b110100 8"
b1011 F#
b1010 9"
1"
#1330000
0"
#1335000
b1100 +
b1100 G#
b1100 F#
b101010 !
b101010 &
b101010 *
b101010 8"
b1011 9"
1"
#1340000
0"
#1345000
b1101 +
b1101 G#
b101011 !
b101011 &
b101011 *
b101011 8"
b1101 F#
b1100 9"
1"
#1350000
0"
#1355000
b1110 +
b1110 G#
b1110 F#
b1010 !
b1010 &
b1010 *
b1010 8"
b1101 9"
1"
#1360000
0"
#1365000
b1111 +
b1111 G#
b10010 !
b10010 &
b10010 *
b10010 8"
b1111 F#
b1110 9"
1"
