seed_random/waveforms/data_path_counter.vcd
$date
	Fri Jan 30 21:31:17 2026
$end
$version
	Icarus Verilog
$end
$timescale
	1ps
$end
$scope module testbench_data_path $end
$var wire 8 ! card_to_send_dp [7:0] $end
$var reg 1 " clk_dp_i $end
$var reg 1 # req_card_state_dp $end
$var reg 1 $ rst_dp_i $end
$scope module uut $end
$var wire 1 " clk_dp_i $end
$var wire 1 # req_card_state_dp $end
$var wire 1 $ rst_dp_i $end
$var parameter 8 % B1_01 $end
$var parameter 8 & B1_02 $end
$var parameter 8 ' B1_03 $end
$var parameter 8 ( B1_04 $end
$var parameter 8 ) B1_05 $end
$var parameter 8 * B1_06 $end
$var parameter 8 + B1_07 $end
$var parameter 8 , B1_08 $end
$var parameter 8 - B1_09 $end
$var parameter 8 . B1_10 $end
$var parameter 8 / B1_11 $end
$var parameter 8 0 B1_12 $end
$var parameter 8 1 B1_13 $end
$var parameter 8 2 B1_14 $end
$var parameter 8 3 B1_15 $end
$var parameter 8 4 B1_16 $end
$var parameter 8 5 B1_17 $end
$var parameter 8 6 B1_18 $end
$var parameter 8 7 B1_19 $end
$var parameter 8 8 B1_20 $end
$var parameter 8 9 B1_21 $end
$var parameter 8 : B1_22 $end
$var parameter 8 ; B1_23 $end
$var parameter 8 < B1_24 $end
$var parameter 8 = B1_25 $end
$var parameter 8 > B1_26 $end
$var parameter 8 ? B1_27 $end
$var parameter 8 @ B1_28 $end
$var parameter 8 A B1_29 $end
$var parameter 8 B B1_30 $end
$var parameter 8 C B1_31 $end
$var parameter 8 D B1_32 $end
$var parameter 8 E B1_33 $end
$var parameter 8 F B1_34 $end
$var parameter 8 G B1_35 $end
$var parameter 8 H B1_36 $end
$var parameter 8 I B1_37 $end
$var parameter 8 J B1_38 $end
$var parameter 8 K B1_39 $end
$var parameter 8 L B1_40 $end
$var parameter 8 M B1_41 $end
$var parameter 8 N B1_42 $end
$var parameter 8 O B1_43 $end
$var parameter 8 P B1_44 $end
$var parameter 8 Q B1_45 $end
$var parameter 8 R B1_46 $end
$var parameter 8 S B1_47 $end
$var parameter 8 T B1_48 $end
$var parameter 8 U B1_49 $end
$var parameter 8 V B1_50 $end
$var parameter 8 W B1_51 $end
$var parameter 8 X B1_52 $end
$var parameter 32 Y IDLE $end
$var parameter 32 Z SEND $end
$var parameter 8 [ position_01 $end
$var parameter 8 \ position_02 $end
$var parameter 8 ] position_03 $end
$var parameter 8 ^ position_04 $end
$var parameter 8 _ position_05 $end
$var parameter 8 ` position_06 $end
$var parameter 8 a position_07 $end
$var parameter 8 b position_08 $end
$var parameter 8 c position_09 $end
$var parameter 8 d position_10 $end
$var parameter 8 e position_11 $end
$var parameter 8 f position_12 $end
$var parameter 8 g position_13 $end
$var parameter 8 h position_14 $end
$var parameter 8 i position_15 $end
$var parameter 8 j position_16 $end
$var parameter 8 k position_17 $end
$var parameter 8 l position_18 $end
$var parameter 8 m position_19 $end
$var parameter 8 n position_20 $end
$var parameter 8 o position_21 $end
$var parameter 8 p position_22 $end
$var parameter 8 q position_23 $end
$var parameter 8 r position_24 $end
$var parameter 8 s position_25 $end
$var parameter 8 t position_26 $end
$var parameter 8 u position_27 $end
$var parameter 8 v position_28 $end
$var parameter 8 w position_29 $end
$var parameter 8 x position_30 $end
$var parameter 8 y position_31 $end
$var parameter 8 z position_32 $end
$var parameter 8 { position_33 $end
$var parameter 8 | position_34 $end
$var parameter 8 } position_35 $end
$var parameter 8 ~ position_36 $end
$var parameter 8 !" position_37 $end
$var parameter 8 "" position_38 $end
$var parameter 8 #" position_39 $end
$var parameter 8 $" position_40 $end
$var parameter 8 %" position_41 $end
$var parameter 8 &" position_42 $end
$var parameter 8 '" position_43 $end
$var parameter 8 (" position_44 $end
$var parameter 8 )" position_45 $end
$var parameter 8 *" position_46 $end
$var parameter 8 +" position_47 $end
$var parameter 8 ," position_48 $end
$var parameter 8 -" position_49 $end
$var parameter 8 ." position_50 $end
$var parameter 8 /" position_51 $end
$var parameter 8 0" position_52 $end
$var reg 8 1" card_counter [7:0] $end
$var reg 8 2" card_to_send_dp [7:0] $end
$var reg 8 3" next_card [7:0] $end
$var reg 1 4" state $end
$upscope $end
$scope begin Clock_generator $end
$upscope $end
$scope begin Wavedump $end
$upscope $end
$upscope $end
$enddefinitions $end
$comment Show the parameter values. $end
$dumpall
b110 0"
b10010 /"
b10110 ."
b10100 -"
b11100 ,"
b110010 +"
b111011 *"
b10001 )"
b111001 ("
b110100 '"
b11001 &"
b101 %"
b100100 $"
b111101 #"
b11000 ""
b1001 !"
b100010 ~
b101011 }
b10101 |
b100001 {
b100011 z
b100 y
b110110 x
b1010 w
b11010 v
b101100 u
b100111 t
b1011 s
b110001 r
b11011 q
b1101 p
b10 o
b110111 n
b101101 m
b11101 l
b111000 k
b110011 j
b10111 i
b111 h
b111010 g
b1 f
b100110 e
b11 d
b100101 c
b110101 b
b1100 a
b101010 `
b101000 _
b1000 ^
b101001 ]
b10011 \
b111100 [
b1 Z
b0 Y
b111101 X
b111100 W
b111011 V
b111010 U
b111001 T
b111000 S
b110111 R
b110110 Q
b110101 P
b110100 O
b110011 N
b110010 M
b110001 L
b101101 K
b101100 J
b101011 I
b101010 H
b101001 G
b101000 F
b100111 E
b100110 D
b100101 C
b100100 B
b100011 A
b100010 @
b100001 ?
b11101 >
b11100 =
b11011 <
b11010 ;
b11001 :
b11000 9
b10111 8
b10110 7
b10101 6
b10100 5
b10011 4
b10010 3
b10001 2
b1101 1
b1100 0
b1011 /
b1010 .
b1001 -
b1000 ,
b111 +
b110 *
b101 )
b100 (
b11 '
b10 &
b1 %
$end
#0
$dumpvars
x4"
bx 3"
bx 2"
bx 1"
1$
x#
0"
bx !
$end
#5000
1"
#10000
b0 !
b0 2"
b0 3"
b0 1"
0"
0$
#15000
1"
#20000
04"
0"
0#
#25000
1"
#30000
0"
#35000
1"
#40000
0"
#45000
1"
#50000
0"
#55000
1"
#60000
0"
#65000
1"
#70000
14"
0"
1#
#75000
1"
#80000
0"
#85000
1"
#90000
0"
#95000
1"
#100000
0"
#105000
1"
#110000
0"
#115000
1"
#120000
0"
#125000
1"
#130000
0"
#135000
1"
#140000
0"
#145000
1"
#150000
0"
#155000
1"
#160000
0"
#165000
1"
#170000
04"
0"
0#
#175000
1"
#180000
0"
#185000
1"
#190000
0"
#195000
14"
1"
1#
#200000
0"
#205000
1"
#210000
0"
#215000
1"
#220000
04"
0"
0#
#225000
1"
#230000
0"
#235000
1"
#240000
0"
#245000
14"
1"
1#
#250000
0"
#255000
1"
#260000
0"
#265000
1"
#270000
04"
0"
0#
#275000
1"
#280000
0"
#285000
1"
#290000
0"
#295000
14"
1"
1#
#300000
0"
#305000
1"
#310000
0"
#315000
1"
#320000
04"
0"
0#
#325000
1"
#330000
0"
#335000
1"
#340000
0"
#345000
14"
1"
1#
#350000
0"
#355000
1"
#360000
0"
#365000
1"
#370000
04"
0"
0#
#375000
1"
#380000
0"
#385000
1"
#390000
0"
#395000
1"
#400000
0"
#405000
1"
#410000
0"
#415000
1"
#420000
14"
0"
1#
#425000
1"
#430000
0"
#435000
1"
#440000
0"
#445000
1"
#450000
0"
#455000
1"
#460000
0"
#465000
1"
#470000
0"
#475000
1"
#480000
0"
#485000
1"
#490000
0"
#495000
1"
#500000
0"
#505000
1"
#510000
0"
#515000
1"
#520000
04"
0"
0#
#525000
1"
#530000
0"
#535000
1"
#540000
0"
#545000
14"
1"
1#
#550000
0"
#555000
1"
#560000
0"
#565000
1"
#570000
04"
0"
0#
#575000
1"
#580000
0"
#585000
1"
#590000
0"
#595000
14"
1"
1#
#600000
0"
#605000
1"
#610000
0"
#615000
1"
#620000
04"
0"
0#
#625000
1"
#630000
0"
#635000
1"
#640000
0"
#645000
14"
1"
1#
#650000
0"
#655000
1"
#660000
0"
#665000
1"
#670000
04"
0"
0#
#675000
1"
#680000
0"
#685000
1"
#690000
0"
#695000
14"
1"
1#
