seed_random_não_otimizado/seed_random_2/waveforms/data_path.vcd
$date
	Sat Jan 31 15:51:57 2026
$end
$version
	Icarus Verilog
$end
$timescale
	1ps
$end
$scope module testbench_data_path $end
$var wire 8 ! card_to_send_dp_o [7:0] $end
$var reg 1 " clk_dp_i $end
$var reg 1 # req_card_state_dp_i $end
$var reg 1 $ rst_dp_i $end
$scope module uut $end
$var wire 8 % card_to_send_dp_o [7:0] $end
$var wire 1 " clk_dp_i $end
$var wire 1 # req_card_state_dp_i $end
$var wire 1 $ rst_dp_i $end
$var wire 8 & card_to_send [7:0] $end
$var parameter 8 ' B2_01 $end
$var parameter 8 ( B2_02 $end
$var parameter 8 ) B2_03 $end
$var parameter 8 * B2_04 $end
$var parameter 8 + B2_05 $end
$var parameter 8 , B2_06 $end
$var parameter 8 - B2_07 $end
$var parameter 8 . B2_08 $end
$var parameter 8 / B2_09 $end
$var parameter 8 0 B2_10 $end
$var parameter 8 1 B2_11 $end
$var parameter 8 2 B2_12 $end
$var parameter 8 3 B2_13 $end
$var parameter 8 4 B2_14 $end
$var parameter 8 5 B2_15 $end
$var parameter 8 6 B2_16 $end
$var parameter 8 7 B2_17 $end
$var parameter 8 8 B2_18 $end
$var parameter 8 9 B2_19 $end
$var parameter 8 : B2_20 $end
$var parameter 8 ; B2_21 $end
$var parameter 8 < B2_22 $end
$var parameter 8 = B2_23 $end
$var parameter 8 > B2_24 $end
$var parameter 8 ? B2_25 $end
$var parameter 8 @ B2_26 $end
$var parameter 8 A B2_27 $end
$var parameter 8 B B2_28 $end
$var parameter 8 C B2_29 $end
$var parameter 8 D B2_30 $end
$var parameter 8 E B2_31 $end
$var parameter 8 F B2_32 $end
$var parameter 8 G B2_33 $end
$var parameter 8 H B2_34 $end
$var parameter 8 I B2_35 $end
$var parameter 8 J B2_36 $end
$var parameter 8 K B2_37 $end
$var parameter 8 L B2_38 $end
$var parameter 8 M B2_39 $end
$var parameter 8 N B2_40 $end
$var parameter 8 O B2_41 $end
$var parameter 8 P B2_42 $end
$var parameter 8 Q B2_43 $end
$var parameter 8 R B2_44 $end
$var parameter 8 S B2_45 $end
$var parameter 8 T B2_46 $end
$var parameter 8 U B2_47 $end
$var parameter 8 V B2_48 $end
$var parameter 8 W B2_49 $end
$var parameter 8 X B2_50 $end
$var parameter 8 Y B2_51 $end
$var parameter 8 Z B2_52 $end
$var parameter 32 [ IDLE $end
$var parameter 32 \ SEND $end
$var parameter 8 ] position_01 $end
$var parameter 8 ^ position_02 $end
$var parameter 8 _ position_03 $end
$var parameter 8 ` position_04 $end
$var parameter 8 a position_05 $end
$var parameter 8 b position_06 $end
$var parameter 8 c position_07 $end
$var parameter 8 d position_08 $end
$var parameter 8 e position_09 $end
$var parameter 8 f position_10 $end
$var parameter 8 g position_11 $end
$var parameter 8 h position_12 $end
$var parameter 8 i position_13 $end
$var parameter 8 j position_14 $end
$var parameter 8 k position_15 $end
$var parameter 8 l position_16 $end
$var parameter 8 m position_17 $end
$var parameter 8 n position_18 $end
$var parameter 8 o position_19 $end
$var parameter 8 p position_20 $end
$var parameter 8 q position_21 $end
$var parameter 8 r position_22 $end
$var parameter 8 s position_23 $end
$var parameter 8 t position_24 $end
$var parameter 8 u position_25 $end
$var parameter 8 v position_26 $end
$var parameter 8 w position_27 $end
$var parameter 8 x position_28 $end
$var parameter 8 y position_29 $end
$var parameter 8 z position_30 $end
$var parameter 8 { position_31 $end
$var parameter 8 | position_32 $end
$var parameter 8 } position_33 $end
$var parameter 8 ~ position_34 $end
$var parameter 8 !" position_35 $end
$var parameter 8 "" position_36 $end
$var parameter 8 #" position_37 $end
$var parameter 8 $" position_38 $end
$var parameter 8 %" position_39 $end
$var parameter 8 &" position_40 $end
$var parameter 8 '" position_41 $end
$var parameter 8 (" position_42 $end
$var parameter 8 )" position_43 $end
$var parameter 8 *" position_44 $end
$var parameter 8 +" position_45 $end
$var parameter 8 ," position_46 $end
$var parameter 8 -" position_47 $end
$var parameter 8 ." position_48 $end
$var parameter 8 /" position_49 $end
$var parameter 8 0" position_50 $end
$var parameter 8 1" position_51 $end
$var parameter 8 2" position_52 $end
$var reg 8 3" next_card [7:0] $end
$scope function card_selector $end
$var reg 8 4" card [7:0] $end
$upscope $end
$scope module inst $end
$var wire 1 " clk_dp_c_i $end
$var wire 1 # req_card_state_dp_c_i $end
$var wire 1 $ rst_dp_c_i $end
$var parameter 8 5" B2_01 $end
$var parameter 8 6" B2_02 $end
$var parameter 8 7" B2_03 $end
$var parameter 8 8" B2_04 $end
$var parameter 8 9" B2_05 $end
$var parameter 8 :" B2_06 $end
$var parameter 8 ;" B2_07 $end
$var parameter 8 <" B2_08 $end
$var parameter 8 =" B2_09 $end
$var parameter 8 >" B2_10 $end
$var parameter 8 ?" B2_11 $end
$var parameter 8 @" B2_12 $end
$var parameter 8 A" B2_13 $end
$var parameter 8 B" B2_14 $end
$var parameter 8 C" B2_15 $end
$var parameter 8 D" B2_16 $end
$var parameter 8 E" B2_17 $end
$var parameter 8 F" B2_18 $end
$var parameter 8 G" B2_19 $end
$var parameter 8 H" B2_20 $end
$var parameter 8 I" B2_21 $end
$var parameter 8 J" B2_22 $end
$var parameter 8 K" B2_23 $end
$var parameter 8 L" B2_24 $end
$var parameter 8 M" B2_25 $end
$var parameter 8 N" B2_26 $end
$var parameter 8 O" B2_27 $end
$var parameter 8 P" B2_28 $end
$var parameter 8 Q" B2_29 $end
$var parameter 8 R" B2_30 $end
$var parameter 8 S" B2_31 $end
$var parameter 8 T" B2_32 $end
$var parameter 8 U" B2_33 $end
$var parameter 8 V" B2_34 $end
$var parameter 8 W" B2_35 $end
$var parameter 8 X" B2_36 $end
$var parameter 8 Y" B2_37 $end
$var parameter 8 Z" B2_38 $end
$var parameter 8 [" B2_39 $end
$var parameter 8 \" B2_40 $end
$var parameter 8 ]" B2_41 $end
$var parameter 8 ^" B2_42 $end
$var parameter 8 _" B2_43 $end
$var parameter 8 `" B2_44 $end
$var parameter 8 a" B2_45 $end
$var parameter 8 b" B2_46 $end
$var parameter 8 c" B2_47 $end
$var parameter 8 d" B2_48 $end
$var parameter 8 e" B2_49 $end
$var parameter 8 f" B2_50 $end
$var parameter 8 g" B2_51 $end
$var parameter 8 h" B2_52 $end
$var parameter 32 i" IDLE $end
$var parameter 32 j" SEND $end
$var parameter 8 k" position_01 $end
$var parameter 8 l" position_02 $end
$var parameter 8 m" position_03 $end
$var parameter 8 n" position_04 $end
$var parameter 8 o" position_05 $end
$var parameter 8 p" position_06 $end
$var parameter 8 q" position_07 $end
$var parameter 8 r" position_08 $end
$var parameter 8 s" position_09 $end
$var parameter 8 t" position_10 $end
$var parameter 8 u" position_11 $end
$var parameter 8 v" position_12 $end
$var parameter 8 w" position_13 $end
$var parameter 8 x" position_14 $end
$var parameter 8 y" position_15 $end
$var parameter 8 z" position_16 $end
$var parameter 8 {" position_17 $end
$var parameter 8 |" position_18 $end
$var parameter 8 }" position_19 $end
$var parameter 8 ~" position_20 $end
$var parameter 8 !# position_21 $end
$var parameter 8 "# position_22 $end
$var parameter 8 ## position_23 $end
$var parameter 8 $# position_24 $end
$var parameter 8 %# position_25 $end
$var parameter 8 &# position_26 $end
$var parameter 8 '# position_27 $end
$var parameter 8 (# position_28 $end
$var parameter 8 )# position_29 $end
$var parameter 8 *# position_30 $end
$var parameter 8 +# position_31 $end
$var parameter 8 ,# position_32 $end
$var parameter 8 -# position_33 $end
$var parameter 8 .# position_34 $end
$var parameter 8 /# position_35 $end
$var parameter 8 0# position_36 $end
$var parameter 8 1# position_37 $end
$var parameter 8 2# position_38 $end
$var parameter 8 3# position_39 $end
$var parameter 8 4# position_40 $end
$var parameter 8 5# position_41 $end
$var parameter 8 6# position_42 $end
$var parameter 8 7# position_43 $end
$var parameter 8 8# position_44 $end
$var parameter 8 9# position_45 $end
$var parameter 8 :# position_46 $end
$var parameter 8 ;# position_47 $end
$var parameter 8 <# position_48 $end
$var parameter 8 =# position_49 $end
$var parameter 8 ># position_50 $end
$var parameter 8 ?# position_51 $end
$var parameter 8 @# position_52 $end
$var reg 8 A# card_counter [7:0] $end
$var reg 8 B# next_card_o [7:0] $end
$var reg 1 C# state $end
$upscope $end
$upscope $end
$scope begin Clock_generator $end
$upscope $end
$scope begin Wavedump $end
$upscope $end
$scope task Increment $end
$upscope $end
$scope task Initial_state $end
$upscope $end
$upscope $end
$enddefinitions $end
$comment Show the parameter values. $end
$dumpall
b10010 @#
b1101 ?#
b1 >#
b101001 =#
b11000 <#
b11001 ;#
b100011 :#
b11011 9#
b110010 8#
b101101 7#
b110111 6#
b111001 5#
b111100 4#
b110101 3#
b110100 2#
b101010 1#
b110001 0#
b100110 /#
b100100 .#
b10101 -#
b100010 ,#
b111000 +#
b10 *#
b101011 )#
b10110 (#
b11010 '#
b10111 &#
b110 %#
b10011 $#
b110011 ##
b11 "#
b1001 !#
b101100 ~"
b11100 }"
b10100 |"
b1100 {"
b100111 z"
b110110 y"
b111101 x"
b111 w"
b1011 v"
b1010 u"
b100 t"
b10001 s"
b100101 r"
b111011 q"
b100001 p"
b101000 o"
b11101 n"
b1000 m"
b101 l"
b111010 k"
b1 j"
b0 i"
b111101 h"
b111100 g"
b111011 f"
b111010 e"
b111001 d"
b111000 c"
b110111 b"
b110110 a"
b110101 `"
b110100 _"
b110011 ^"
b110010 ]"
b110001 \"
b101101 ["
b101100 Z"
b101011 Y"
b101010 X"
b101001 W"
b101000 V"
b100111 U"
b100110 T"
b100101 S"
b100100 R"
b100011 Q"
b100010 P"
b100001 O"
b11101 N"
b11100 M"
b11011 L"
b11010 K"
b11001 J"
b11000 I"
b10111 H"
b10110 G"
b10101 F"
b10100 E"
b10011 D"
b10010 C"
b10001 B"
b1101 A"
b1100 @"
b1011 ?"
b1010 >"
b1001 ="
b1000 <"
b111 ;"
b110 :"
b101 9"
b100 8"
b11 7"
b10 6"
b1 5"
b10010 2"
b1101 1"
b1 0"
b101001 /"
b11000 ."
b11001 -"
b100011 ,"
b11011 +"
b110010 *"
b101101 )"
b110111 ("
b111001 '"
b111100 &"
b110101 %"
b110100 $"
b101010 #"
b110001 ""
b100110 !"
b100100 ~
b10101 }
b100010 |
b111000 {
b10 z
b101011 y
b10110 x
b11010 w
b10111 v
b110 u
b10011 t
b110011 s
b11 r
b1001 q
b101100 p
b11100 o
b10100 n
b1100 m
b100111 l
b110110 k
b111101 j
b111 i
b1011 h
b1010 g
b100 f
b10001 e
b100101 d
b111011 c
b100001 b
b101000 a
b11101 `
b1000 _
b101 ^
b111010 ]
b1 \
b0 [
b111101 Z
b111100 Y
b111011 X
b111010 W
b111001 V
b111000 U
b110111 T
b110110 S
b110101 R
b110100 Q
b110011 P
b110010 O
b110001 N
b101101 M
b101100 L
b101011 K
b101010 J
b101001 I
b101000 H
b100111 G
b100110 F
b100101 E
b100100 D
b100011 C
b100010 B
b100001 A
b11101 @
b11100 ?
b11011 >
b11010 =
b11001 <
b11000 ;
b10111 :
b10110 9
b10101 8
b10100 7
b10011 6
b10010 5
b10001 4
b1101 3
b1100 2
b1011 1
b1010 0
b1001 /
b1000 .
b111 -
b110 ,
b101 +
b100 *
b11 )
b10 (
b1 '
$end
#0
$dumpvars
0C#
b0 B#
b0 A#
bx 4"
b0 3"
b0 &
b0 %
0$
0#
0"
b0 !
$end
#5000
1"
#10000
1C#
0"
1#
1$
#15000
b1 &
b1 B#
b1 A#
b0 4"
1"
#20000
0"
1#
#25000
b10 &
b10 B#
b111010 !
b111010 %
b111010 3"
b10 A#
b1 4"
1"
#30000
0"
1#
#35000
b11 &
b11 B#
b11 A#
b101 !
b101 %
b101 3"
b10 4"
1"
#40000
0"
1#
#45000
b100 &
b100 B#
b1000 !
b1000 %
b1000 3"
b100 A#
b11 4"
1"
#50000
0"
1#
#55000
b101 &
b101 B#
b101 A#
b11101 !
b11101 %
b11101 3"
b100 4"
1"
#60000
0"
1#
#65000
b110 &
b110 B#
b101000 !
b101000 %
b101000 3"
b110 A#
b101 4"
1"
#70000
0"
1#
#75000
b111 &
b111 B#
b111 A#
b100001 !
b100001 %
b100001 3"
b110 4"
1"
#80000
0"
1#
#85000
b1000 &
b1000 B#
b111011 !
b111011 %
b111011 3"
b1000 A#
b111 4"
1"
#90000
0"
1#
#95000
b1001 &
b1001 B#
b1001 A#
b100101 !
b100101 %
b100101 3"
b1000 4"
1"
#100000
0"
1#
#105000
b1010 &
b1010 B#
b10001 !
b10001 %
b10001 3"
b1010 A#
b1001 4"
1"
#110000
0"
1#
#115000
b1011 &
b1011 B#
b1011 A#
b100 !
b100 %
b100 3"
b1010 4"
1"
#120000
0"
1#
#125000
b1100 &
b1100 B#
b1010 !
b1010 %
b1010 3"
b1100 A#
b1011 4"
1"
#130000
0"
1#
#135000
b1101 &
b1101 B#
b1101 A#
b1011 !
b1011 %
b1011 3"
b1100 4"
1"
#140000
0"
1#
#145000
b1110 &
b1110 B#
b111 !
b111 %
b111 3"
b1110 A#
b1101 4"
1"
#150000
0"
1#
#155000
b1111 &
b1111 B#
b1111 A#
b111101 !
b111101 %
b111101 3"
b1110 4"
1"
#160000
0"
1#
#165000
b10000 &
b10000 B#
b110110 !
b110110 %
b110110 3"
b10000 A#
b1111 4"
1"
#170000
0"
1#
#175000
b10001 &
b10001 B#
b10001 A#
b100111 !
b100111 %
b100111 3"
b10000 4"
1"
#180000
0"
1#
#185000
b10010 &
b10010 B#
b1100 !
b1100 %
b1100 3"
b10010 A#
b10001 4"
1"
#190000
0"
1#
#195000
b10011 &
b10011 B#
b10011 A#
b10100 !
b10100 %
b10100 3"
b10010 4"
1"
#200000
0"
1#
#205000
b10100 &
b10100 B#
b11100 !
b11100 %
b11100 3"
b10100 A#
b10011 4"
1"
#210000
0"
1#
#215000
b10101 &
b10101 B#
b10101 A#
b101100 !
b101100 %
b101100 3"
b10100 4"
1"
#220000
0"
1#
#225000
b10110 &
b10110 B#
b1001 !
b1001 %
b1001 3"
b10110 A#
b10101 4"
1"
#230000
0"
1#
#235000
b10111 &
b10111 B#
b10111 A#
b11 !
b11 %
b11 3"
b10110 4"
1"
#240000
0"
1#
#245000
b11000 &
b11000 B#
b110011 !
b110011 %
b110011 3"
b11000 A#
b10111 4"
1"
#250000
0"
1#
#255000
b11001 &
b11001 B#
b11001 A#
b10011 !
b10011 %
b10011 3"
b11000 4"
1"
#260000
0"
1#
#265000
b11010 &
b11010 B#
b110 !
b110 %
b110 3"
b11010 A#
b11001 4"
1"
#270000
0"
1#
#275000
b11011 &
b11011 B#
b11011 A#
b10111 !
b10111 %
b10111 3"
b11010 4"
1"
#280000
0"
1#
#285000
b11100 &
b11100 B#
b11010 !
b11010 %
b11010 3"
b11100 A#
b11011 4"
1"
#290000
0"
1#
#295000
b11101 &
b11101 B#
b11101 A#
b10110 !
b10110 %
b10110 3"
b11100 4"
1"
#300000
0"
1#
#305000
b11110 &
b11110 B#
b101011 !
b101011 %
b101011 3"
b11110 A#
b11101 4"
1"
#310000
0C#
0"
0#
