seed_random/dump.vcd
$date
	Wed Jan 28 21:24:09 2026
$end
$version
	Icarus Verilog
$end
$timescale
	1ps
$end
$scope module testbench $end
$var wire 8 ! card_to_send [7:0] $end
$var reg 1 " clk_i $end
$var reg 1 # request_card_i $end
$var reg 1 $ rst_i $end
$scope module uut $end
$var wire 1 " clk_i $end
$var wire 1 # request_card_i $end
$var wire 1 $ rst_i $end
$var parameter 8 % B1_01 $end
$var parameter 8 & B1_02 $end
$var parameter 8 ' B1_03 $end
$var parameter 8 ( B1_04 $end
$var parameter 8 ) B1_05 $end
$var parameter 8 * B1_06 $end
$var parameter 8 + B1_07 $end
$var parameter 8 , B1_08 $end
$var parameter 8 - B1_09 $end
$var parameter 8 . B1_10 $end
$var parameter 8 / B1_11 $end
$var parameter 8 0 B1_12 $end
$var parameter 8 1 B1_13 $end
$var parameter 8 2 B1_14 $end
$var parameter 8 3 B1_15 $end
$var parameter 8 4 B1_16 $end
$var parameter 8 5 B1_17 $end
$var parameter 8 6 B1_18 $end
$var parameter 8 7 B1_19 $end
$var parameter 8 8 B1_20 $end
$var parameter 8 9 B1_21 $end
$var parameter 8 : B1_22 $end
$var parameter 8 ; B1_23 $end
$var parameter 8 < B1_24 $end
$var parameter 8 = B1_25 $end
$var parameter 8 > B1_26 $end
$var parameter 8 ? B1_27 $end
$var parameter 8 @ B1_28 $end
$var parameter 8 A B1_29 $end
$var parameter 8 B B1_30 $end
$var parameter 8 C B1_31 $end
$var parameter 8 D B1_32 $end
$var parameter 8 E B1_33 $end
$var parameter 8 F B1_34 $end
$var parameter 8 G B1_35 $end
$var parameter 8 H B1_36 $end
$var parameter 8 I B1_37 $end
$var parameter 8 J B1_38 $end
$var parameter 8 K B1_39 $end
$var parameter 8 L B1_40 $end
$var parameter 8 M B1_41 $end
$var parameter 8 N B1_42 $end
$var parameter 8 O B1_43 $end
$var parameter 8 P B1_44 $end
$var parameter 8 Q B1_45 $end
$var parameter 8 R B1_46 $end
$var parameter 8 S B1_47 $end
$var parameter 8 T B1_48 $end
$var parameter 8 U B1_49 $end
$var parameter 8 V B1_50 $end
$var parameter 8 W B1_51 $end
$var parameter 8 X B1_52 $end
$var reg 8 Y card_counter [7:0] $end
$var reg 8 Z card_to_send [7:0] $end
$var reg 8 [ next_card [7:0] $end
$scope function card_selector $end
$var reg 8 \ counter [7:0] $end
$upscope $end
$upscope $end
$scope begin Clock_generator $end
$upscope $end
$scope begin Wavedump $end
$upscope $end
$upscope $end
$enddefinitions $end
$comment Show the parameter values. $end
$dumpall
b111101 X
b111100 W
b111011 V
b111010 U
b111001 T
b111000 S
b110111 R
b110110 Q
b110101 P
b110100 O
b110011 N
b110010 M
b110001 L
b101101 K
b101100 J
b101011 I
b101010 H
b101001 G
b101000 F
b100111 E
b100110 D
b100101 C
b100100 B
b100011 A
b100010 @
b100001 ?
b11101 >
b11100 =
b11011 <
b11010 ;
b11001 :
b11000 9
b10111 8
b10110 7
b10101 6
b10100 5
b10011 4
b10010 3
b10001 2
b1101 1
b1100 0
b1011 /
b1010 .
b1001 -
b1000 ,
b111 +
b110 *
b101 )
b100 (
b11 '
b10 &
b1 %
$end
#0
$dumpvars
bx \
bx [
bx Z
bx Y
1$
x#
0"
bx !
$end
#5000
1"
#10000
b0 !
b0 Z
b0 [
b0 Y
0"
0$
#15000
1"
#20000
0"
0#
#25000
1"
#30000
0"
#35000
1"
#40000
0"
#45000
1"
#50000
0"
#55000
1"
#60000
0"
#65000
1"
#70000
0"
1#
#75000
1"
#80000
0"
#85000
1"
#90000
0"
#95000
1"
#100000
0"
#105000
1"
#110000
0"
#115000
1"
#120000
0"
#125000
1"
#130000
0"
#135000
1"
#140000
0"
#145000
1"
#150000
0"
#155000
1"
#160000
0"
#165000
1"
#170000
0"
0#
#175000
1"
#180000
0"
#185000
1"
#190000
0"
#195000
1"
1#
#200000
0"
#205000
1"
#210000
0"
#215000
1"
#220000
0"
0#
#225000
1"
#230000
0"
#235000
1"
#240000
0"
#245000
1"
1#
#250000
0"
#255000
1"
#260000
0"
#265000
1"
#270000
0"
0#
#275000
1"
#280000
0"
#285000
1"
#290000
0"
#295000
1"
1#
#300000
0"
#305000
1"
#310000
0"
#315000
1"
#320000
0"
0#
#325000
1"
#330000
0"
#335000
1"
#340000
0"
#345000
1"
1#
